^E:\DROPBOX\PUB-AN3\EGC (ELEM DE GRAFICA PE CALCULATOR)\TEME\TEMA2\VRUMVRUM - V1.0.0.2\LAB2\FRAMEWORK\DRAWINGWINDOW.CPP|E:\DROPBOX\PUB-AN3\EGC (ELEM DE GRAFICA PE CALCULATOR)\TEME\TEMA2\VRUMVRUM - V1.0.0.2\LAB2\FRAMEWORK\TRANSFORM2D.CPP|E:\DROPBOX\PUB-AN3\EGC (ELEM DE GRAFICA PE CALCULATOR)\TEME\TEMA2\VRUMVRUM - V1.0.0.2\LAB2\FRAMEWORK\TRANSFORM3D.CPP|E:\DROPBOX\PUB-AN3\EGC (ELEM DE GRAFICA PE CALCULATOR)\TEME\TEMA2\VRUMVRUM - V1.0.0.2\LAB2\FRAMEWORK\VISUAL2D.CPP|E:\DROPBOX\PUB-AN3\EGC (ELEM DE GRAFICA PE CALCULATOR)\TEME\TEMA2\VRUMVRUM - V1.0.0.2\LAB2\GAMESTUFF\CAROBSTACLE.CPP|E:\DROPBOX\PUB-AN3\EGC (ELEM DE GRAFICA PE CALCULATOR)\TEME\TEMA2\VRUMVRUM - V1.0.0.2\LAB2\GAMESTUFF\CARSHIP.CPP|E:\DROPBOX\PUB-AN3\EGC (ELEM DE GRAFICA PE CALCULATOR)\TEME\TEMA2\VRUMVRUM - V1.0.0.2\LAB2\GAMESTUFF\CAR\CARBODY.CPP|E:\DROPBOX\PUB-AN3\EGC (ELEM DE GRAFICA PE CALCULATOR)\TEME\TEMA2\VRUMVRUM - V1.0.0.2\LAB2\GAMESTUFF\CAR\WHEEL.CPP|E:\DROPBOX\PUB-AN3\EGC (ELEM DE GRAFICA PE CALCULATOR)\TEME\TEMA2\VRUMVRUM - V1.0.0.2\LAB2\GAMESTUFF\CONE.CPP|E:\DROPBOX\PUB-AN3\EGC (ELEM DE GRAFICA PE CALCULATOR)\TEME\TEMA2\VRUMVRUM - V1.0.0.2\LAB2\GAMESTUFF\CUBOID.CPP|E:\DROPBOX\PUB-AN3\EGC (ELEM DE GRAFICA PE CALCULATOR)\TEME\TEMA2\VRUMVRUM - V1.0.0.2\LAB2\GAMESTUFF\HEART.CPP|E:\DROPBOX\PUB-AN3\EGC (ELEM DE GRAFICA PE CALCULATOR)\TEME\TEMA2\VRUMVRUM - V1.0.0.2\LAB2\GAMESTUFF\HEXACONE.CPP|E:\DROPBOX\PUB-AN3\EGC (ELEM DE GRAFICA PE CALCULATOR)\TEME\TEMA2\VRUMVRUM - V1.0.0.2\LAB2\GAMESTUFF\PYRAMID.CPP|E:\DROPBOX\PUB-AN3\EGC (ELEM DE GRAFICA PE CALCULATOR)\TEME\TEMA2\VRUMVRUM - V1.0.0.2\LAB2\GAMESTUFF\ROAD.CPP|E:\DROPBOX\PUB-AN3\EGC (ELEM DE GRAFICA PE CALCULATOR)\TEME\TEMA2\VRUMVRUM - V1.0.0.2\LAB2\GAMESTUFF\SPHERE.CPP|E:\DROPBOX\PUB-AN3\EGC (ELEM DE GRAFICA PE CALCULATOR)\TEME\TEMA2\VRUMVRUM - V1.0.0.2\LAB2\GAMESTUFF\WEIRD.CPP|E:\DROPBOX\PUB-AN3\EGC (ELEM DE GRAFICA PE CALCULATOR)\TEME\TEMA2\VRUMVRUM - V1.0.0.2\LAB2\MAIN.CPP
E:\DROPBOX\PUB-AN3\EGC (ELEM DE GRAFICA PE CALCULATOR)\TEME\TEMA2\VRUMVRUM - V1.0.0.2\LAB2\DEBUG\VC120.PDB
E:\DROPBOX\PUB-AN3\EGC (ELEM DE GRAFICA PE CALCULATOR)\TEME\TEMA2\VRUMVRUM - V1.0.0.2\LAB2\DEBUG\VC120.IDB
E:\DROPBOX\PUB-AN3\EGC (ELEM DE GRAFICA PE CALCULATOR)\TEME\TEMA2\VRUMVRUM - V1.0.0.2\LAB2\DEBUG\DRAWINGWINDOW.OBJ
E:\DROPBOX\PUB-AN3\EGC (ELEM DE GRAFICA PE CALCULATOR)\TEME\TEMA2\VRUMVRUM - V1.0.0.2\LAB2\DEBUG\TRANSFORM2D.OBJ
E:\DROPBOX\PUB-AN3\EGC (ELEM DE GRAFICA PE CALCULATOR)\TEME\TEMA2\VRUMVRUM - V1.0.0.2\LAB2\DEBUG\TRANSFORM3D.OBJ
E:\DROPBOX\PUB-AN3\EGC (ELEM DE GRAFICA PE CALCULATOR)\TEME\TEMA2\VRUMVRUM - V1.0.0.2\LAB2\DEBUG\VISUAL2D.OBJ
E:\DROPBOX\PUB-AN3\EGC (ELEM DE GRAFICA PE CALCULATOR)\TEME\TEMA2\VRUMVRUM - V1.0.0.2\LAB2\DEBUG\CAROBSTACLE.OBJ
E:\DROPBOX\PUB-AN3\EGC (ELEM DE GRAFICA PE CALCULATOR)\TEME\TEMA2\VRUMVRUM - V1.0.0.2\LAB2\DEBUG\CARSHIP.OBJ
E:\DROPBOX\PUB-AN3\EGC (ELEM DE GRAFICA PE CALCULATOR)\TEME\TEMA2\VRUMVRUM - V1.0.0.2\LAB2\DEBUG\CARBODY.OBJ
E:\DROPBOX\PUB-AN3\EGC (ELEM DE GRAFICA PE CALCULATOR)\TEME\TEMA2\VRUMVRUM - V1.0.0.2\LAB2\DEBUG\WHEEL.OBJ
E:\DROPBOX\PUB-AN3\EGC (ELEM DE GRAFICA PE CALCULATOR)\TEME\TEMA2\VRUMVRUM - V1.0.0.2\LAB2\DEBUG\CUBOID.OBJ
E:\DROPBOX\PUB-AN3\EGC (ELEM DE GRAFICA PE CALCULATOR)\TEME\TEMA2\VRUMVRUM - V1.0.0.2\LAB2\DEBUG\HEART.OBJ
E:\DROPBOX\PUB-AN3\EGC (ELEM DE GRAFICA PE CALCULATOR)\TEME\TEMA2\VRUMVRUM - V1.0.0.2\LAB2\DEBUG\HEXACONE.OBJ
E:\DROPBOX\PUB-AN3\EGC (ELEM DE GRAFICA PE CALCULATOR)\TEME\TEMA2\VRUMVRUM - V1.0.0.2\LAB2\DEBUG\CONE.OBJ
E:\DROPBOX\PUB-AN3\EGC (ELEM DE GRAFICA PE CALCULATOR)\TEME\TEMA2\VRUMVRUM - V1.0.0.2\LAB2\DEBUG\PYRAMID.OBJ
E:\DROPBOX\PUB-AN3\EGC (ELEM DE GRAFICA PE CALCULATOR)\TEME\TEMA2\VRUMVRUM - V1.0.0.2\LAB2\DEBUG\ROAD.OBJ
E:\DROPBOX\PUB-AN3\EGC (ELEM DE GRAFICA PE CALCULATOR)\TEME\TEMA2\VRUMVRUM - V1.0.0.2\LAB2\DEBUG\SPHERE.OBJ
E:\DROPBOX\PUB-AN3\EGC (ELEM DE GRAFICA PE CALCULATOR)\TEME\TEMA2\VRUMVRUM - V1.0.0.2\LAB2\DEBUG\WEIRD.OBJ
E:\DROPBOX\PUB-AN3\EGC (ELEM DE GRAFICA PE CALCULATOR)\TEME\TEMA2\VRUMVRUM - V1.0.0.2\LAB2\DEBUG\MAIN.OBJ
^E:\DROPBOX\PUB-AN3\EGC (ELEM DE GRAFICA PE CALCULATOR)\TEME\TEMA2\VRUMVRUM - V1.0.0.2\LAB2\FRAMEWORK\DRAWINGWINDOW.CPP
E:\DROPBOX\PUB-AN3\EGC (ELEM DE GRAFICA PE CALCULATOR)\TEME\TEMA2\VRUMVRUM - V1.0.0.2\LAB2\DEBUG\VC120.PDB
^E:\DROPBOX\PUB-AN3\EGC (ELEM DE GRAFICA PE CALCULATOR)\TEME\TEMA2\VRUMVRUM - V1.0.0.2\LAB2\FRAMEWORK\TRANSFORM2D.CPP
E:\DROPBOX\PUB-AN3\EGC (ELEM DE GRAFICA PE CALCULATOR)\TEME\TEMA2\VRUMVRUM - V1.0.0.2\LAB2\DEBUG\VC120.PDB
^E:\DROPBOX\PUB-AN3\EGC (ELEM DE GRAFICA PE CALCULATOR)\TEME\TEMA2\VRUMVRUM - V1.0.0.2\LAB2\FRAMEWORK\TRANSFORM3D.CPP
E:\DROPBOX\PUB-AN3\EGC (ELEM DE GRAFICA PE CALCULATOR)\TEME\TEMA2\VRUMVRUM - V1.0.0.2\LAB2\DEBUG\VC120.PDB
^E:\DROPBOX\PUB-AN3\EGC (ELEM DE GRAFICA PE CALCULATOR)\TEME\TEMA2\VRUMVRUM - V1.0.0.2\LAB2\FRAMEWORK\VISUAL2D.CPP
E:\DROPBOX\PUB-AN3\EGC (ELEM DE GRAFICA PE CALCULATOR)\TEME\TEMA2\VRUMVRUM - V1.0.0.2\LAB2\DEBUG\VC120.PDB
^E:\DROPBOX\PUB-AN3\EGC (ELEM DE GRAFICA PE CALCULATOR)\TEME\TEMA2\VRUMVRUM - V1.0.0.2\LAB2\GAMESTUFF\CAROBSTACLE.CPP
E:\DROPBOX\PUB-AN3\EGC (ELEM DE GRAFICA PE CALCULATOR)\TEME\TEMA2\VRUMVRUM - V1.0.0.2\LAB2\DEBUG\VC120.PDB
^E:\DROPBOX\PUB-AN3\EGC (ELEM DE GRAFICA PE CALCULATOR)\TEME\TEMA2\VRUMVRUM - V1.0.0.2\LAB2\GAMESTUFF\CARSHIP.CPP
E:\DROPBOX\PUB-AN3\EGC (ELEM DE GRAFICA PE CALCULATOR)\TEME\TEMA2\VRUMVRUM - V1.0.0.2\LAB2\DEBUG\VC120.PDB
^E:\DROPBOX\PUB-AN3\EGC (ELEM DE GRAFICA PE CALCULATOR)\TEME\TEMA2\VRUMVRUM - V1.0.0.2\LAB2\GAMESTUFF\CAR\CARBODY.CPP
E:\DROPBOX\PUB-AN3\EGC (ELEM DE GRAFICA PE CALCULATOR)\TEME\TEMA2\VRUMVRUM - V1.0.0.2\LAB2\DEBUG\VC120.PDB
^E:\DROPBOX\PUB-AN3\EGC (ELEM DE GRAFICA PE CALCULATOR)\TEME\TEMA2\VRUMVRUM - V1.0.0.2\LAB2\GAMESTUFF\CAR\WHEEL.CPP
E:\DROPBOX\PUB-AN3\EGC (ELEM DE GRAFICA PE CALCULATOR)\TEME\TEMA2\VRUMVRUM - V1.0.0.2\LAB2\DEBUG\VC120.PDB
^E:\DROPBOX\PUB-AN3\EGC (ELEM DE GRAFICA PE CALCULATOR)\TEME\TEMA2\VRUMVRUM - V1.0.0.2\LAB2\GAMESTUFF\CUBOID.CPP
E:\DROPBOX\PUB-AN3\EGC (ELEM DE GRAFICA PE CALCULATOR)\TEME\TEMA2\VRUMVRUM - V1.0.0.2\LAB2\DEBUG\VC120.PDB
^E:\DROPBOX\PUB-AN3\EGC (ELEM DE GRAFICA PE CALCULATOR)\TEME\TEMA2\VRUMVRUM - V1.0.0.2\LAB2\GAMESTUFF\HEART.CPP
E:\DROPBOX\PUB-AN3\EGC (ELEM DE GRAFICA PE CALCULATOR)\TEME\TEMA2\VRUMVRUM - V1.0.0.2\LAB2\DEBUG\VC120.PDB
^E:\DROPBOX\PUB-AN3\EGC (ELEM DE GRAFICA PE CALCULATOR)\TEME\TEMA2\VRUMVRUM - V1.0.0.2\LAB2\GAMESTUFF\HEXACONE.CPP
E:\DROPBOX\PUB-AN3\EGC (ELEM DE GRAFICA PE CALCULATOR)\TEME\TEMA2\VRUMVRUM - V1.0.0.2\LAB2\DEBUG\VC120.PDB
^E:\DROPBOX\PUB-AN3\EGC (ELEM DE GRAFICA PE CALCULATOR)\TEME\TEMA2\VRUMVRUM - V1.0.0.2\LAB2\GAMESTUFF\CONE.CPP
E:\DROPBOX\PUB-AN3\EGC (ELEM DE GRAFICA PE CALCULATOR)\TEME\TEMA2\VRUMVRUM - V1.0.0.2\LAB2\DEBUG\VC120.PDB
^E:\DROPBOX\PUB-AN3\EGC (ELEM DE GRAFICA PE CALCULATOR)\TEME\TEMA2\VRUMVRUM - V1.0.0.2\LAB2\GAMESTUFF\PYRAMID.CPP
E:\DROPBOX\PUB-AN3\EGC (ELEM DE GRAFICA PE CALCULATOR)\TEME\TEMA2\VRUMVRUM - V1.0.0.2\LAB2\DEBUG\VC120.PDB
^E:\DROPBOX\PUB-AN3\EGC (ELEM DE GRAFICA PE CALCULATOR)\TEME\TEMA2\VRUMVRUM - V1.0.0.2\LAB2\GAMESTUFF\ROAD.CPP
E:\DROPBOX\PUB-AN3\EGC (ELEM DE GRAFICA PE CALCULATOR)\TEME\TEMA2\VRUMVRUM - V1.0.0.2\LAB2\DEBUG\VC120.PDB
^E:\DROPBOX\PUB-AN3\EGC (ELEM DE GRAFICA PE CALCULATOR)\TEME\TEMA2\VRUMVRUM - V1.0.0.2\LAB2\GAMESTUFF\SPHERE.CPP
E:\DROPBOX\PUB-AN3\EGC (ELEM DE GRAFICA PE CALCULATOR)\TEME\TEMA2\VRUMVRUM - V1.0.0.2\LAB2\DEBUG\VC120.PDB
^E:\DROPBOX\PUB-AN3\EGC (ELEM DE GRAFICA PE CALCULATOR)\TEME\TEMA2\VRUMVRUM - V1.0.0.2\LAB2\GAMESTUFF\WEIRD.CPP
E:\DROPBOX\PUB-AN3\EGC (ELEM DE GRAFICA PE CALCULATOR)\TEME\TEMA2\VRUMVRUM - V1.0.0.2\LAB2\DEBUG\VC120.PDB
^E:\DROPBOX\PUB-AN3\EGC (ELEM DE GRAFICA PE CALCULATOR)\TEME\TEMA2\VRUMVRUM - V1.0.0.2\LAB2\MAIN.CPP
E:\DROPBOX\PUB-AN3\EGC (ELEM DE GRAFICA PE CALCULATOR)\TEME\TEMA2\VRUMVRUM - V1.0.0.2\LAB2\DEBUG\VC120.PDB
^E:\DROPBOX\PUB-AN3\EGC-ELEM_DE_GRAFICA_PE_CALCULATOR\TEME\TEMA2\VRUMVRUM - V1.0.0.2\LAB2\FRAMEWORK\DRAWINGWINDOW.CPP|E:\DROPBOX\PUB-AN3\EGC-ELEM_DE_GRAFICA_PE_CALCULATOR\TEME\TEMA2\VRUMVRUM - V1.0.0.2\LAB2\FRAMEWORK\TRANSFORM2D.CPP|E:\DROPBOX\PUB-AN3\EGC-ELEM_DE_GRAFICA_PE_CALCULATOR\TEME\TEMA2\VRUMVRUM - V1.0.0.2\LAB2\FRAMEWORK\TRANSFORM3D.CPP|E:\DROPBOX\PUB-AN3\EGC-ELEM_DE_GRAFICA_PE_CALCULATOR\TEME\TEMA2\VRUMVRUM - V1.0.0.2\LAB2\FRAMEWORK\VISUAL2D.CPP|E:\DROPBOX\PUB-AN3\EGC-ELEM_DE_GRAFICA_PE_CALCULATOR\TEME\TEMA2\VRUMVRUM - V1.0.0.2\LAB2\GAMESTUFF\CAROBSTACLE.CPP|E:\DROPBOX\PUB-AN3\EGC-ELEM_DE_GRAFICA_PE_CALCULATOR\TEME\TEMA2\VRUMVRUM - V1.0.0.2\LAB2\GAMESTUFF\CARSHIP.CPP|E:\DROPBOX\PUB-AN3\EGC-ELEM_DE_GRAFICA_PE_CALCULATOR\TEME\TEMA2\VRUMVRUM - V1.0.0.2\LAB2\GAMESTUFF\CAR\CARBODY.CPP|E:\DROPBOX\PUB-AN3\EGC-ELEM_DE_GRAFICA_PE_CALCULATOR\TEME\TEMA2\VRUMVRUM - V1.0.0.2\LAB2\GAMESTUFF\CAR\WHEEL.CPP|E:\DROPBOX\PUB-AN3\EGC-ELEM_DE_GRAFICA_PE_CALCULATOR\TEME\TEMA2\VRUMVRUM - V1.0.0.2\LAB2\GAMESTUFF\CONE.CPP|E:\DROPBOX\PUB-AN3\EGC-ELEM_DE_GRAFICA_PE_CALCULATOR\TEME\TEMA2\VRUMVRUM - V1.0.0.2\LAB2\GAMESTUFF\CUBOID.CPP|E:\DROPBOX\PUB-AN3\EGC-ELEM_DE_GRAFICA_PE_CALCULATOR\TEME\TEMA2\VRUMVRUM - V1.0.0.2\LAB2\GAMESTUFF\HEART.CPP|E:\DROPBOX\PUB-AN3\EGC-ELEM_DE_GRAFICA_PE_CALCULATOR\TEME\TEMA2\VRUMVRUM - V1.0.0.2\LAB2\GAMESTUFF\HEXACONE.CPP|E:\DROPBOX\PUB-AN3\EGC-ELEM_DE_GRAFICA_PE_CALCULATOR\TEME\TEMA2\VRUMVRUM - V1.0.0.2\LAB2\GAMESTUFF\PYRAMID.CPP|E:\DROPBOX\PUB-AN3\EGC-ELEM_DE_GRAFICA_PE_CALCULATOR\TEME\TEMA2\VRUMVRUM - V1.0.0.2\LAB2\GAMESTUFF\ROAD.CPP|E:\DROPBOX\PUB-AN3\EGC-ELEM_DE_GRAFICA_PE_CALCULATOR\TEME\TEMA2\VRUMVRUM - V1.0.0.2\LAB2\GAMESTUFF\SPHERE.CPP|E:\DROPBOX\PUB-AN3\EGC-ELEM_DE_GRAFICA_PE_CALCULATOR\TEME\TEMA2\VRUMVRUM - V1.0.0.2\LAB2\GAMESTUFF\WEIRD.CPP|E:\DROPBOX\PUB-AN3\EGC-ELEM_DE_GRAFICA_PE_CALCULATOR\TEME\TEMA2\VRUMVRUM - V1.0.0.2\LAB2\MAIN.CPP
E:\DROPBOX\PUB-AN3\EGC-ELEM_DE_GRAFICA_PE_CALCULATOR\TEME\TEMA2\VRUMVRUM - V1.0.0.2\LAB2\DEBUG\VC120.PDB
E:\DROPBOX\PUB-AN3\EGC-ELEM_DE_GRAFICA_PE_CALCULATOR\TEME\TEMA2\VRUMVRUM - V1.0.0.2\LAB2\DEBUG\VC120.IDB
E:\DROPBOX\PUB-AN3\EGC-ELEM_DE_GRAFICA_PE_CALCULATOR\TEME\TEMA2\VRUMVRUM - V1.0.0.2\LAB2\DEBUG\DRAWINGWINDOW.OBJ
E:\DROPBOX\PUB-AN3\EGC-ELEM_DE_GRAFICA_PE_CALCULATOR\TEME\TEMA2\VRUMVRUM - V1.0.0.2\LAB2\DEBUG\TRANSFORM2D.OBJ
E:\DROPBOX\PUB-AN3\EGC-ELEM_DE_GRAFICA_PE_CALCULATOR\TEME\TEMA2\VRUMVRUM - V1.0.0.2\LAB2\DEBUG\TRANSFORM3D.OBJ
E:\DROPBOX\PUB-AN3\EGC-ELEM_DE_GRAFICA_PE_CALCULATOR\TEME\TEMA2\VRUMVRUM - V1.0.0.2\LAB2\DEBUG\VISUAL2D.OBJ
E:\DROPBOX\PUB-AN3\EGC-ELEM_DE_GRAFICA_PE_CALCULATOR\TEME\TEMA2\VRUMVRUM - V1.0.0.2\LAB2\DEBUG\CAROBSTACLE.OBJ
E:\DROPBOX\PUB-AN3\EGC-ELEM_DE_GRAFICA_PE_CALCULATOR\TEME\TEMA2\VRUMVRUM - V1.0.0.2\LAB2\DEBUG\CARSHIP.OBJ
E:\DROPBOX\PUB-AN3\EGC-ELEM_DE_GRAFICA_PE_CALCULATOR\TEME\TEMA2\VRUMVRUM - V1.0.0.2\LAB2\DEBUG\CARBODY.OBJ
E:\DROPBOX\PUB-AN3\EGC-ELEM_DE_GRAFICA_PE_CALCULATOR\TEME\TEMA2\VRUMVRUM - V1.0.0.2\LAB2\DEBUG\WHEEL.OBJ
E:\DROPBOX\PUB-AN3\EGC-ELEM_DE_GRAFICA_PE_CALCULATOR\TEME\TEMA2\VRUMVRUM - V1.0.0.2\LAB2\DEBUG\CUBOID.OBJ
E:\DROPBOX\PUB-AN3\EGC-ELEM_DE_GRAFICA_PE_CALCULATOR\TEME\TEMA2\VRUMVRUM - V1.0.0.2\LAB2\DEBUG\HEART.OBJ
E:\DROPBOX\PUB-AN3\EGC-ELEM_DE_GRAFICA_PE_CALCULATOR\TEME\TEMA2\VRUMVRUM - V1.0.0.2\LAB2\DEBUG\HEXACONE.OBJ
E:\DROPBOX\PUB-AN3\EGC-ELEM_DE_GRAFICA_PE_CALCULATOR\TEME\TEMA2\VRUMVRUM - V1.0.0.2\LAB2\DEBUG\CONE.OBJ
E:\DROPBOX\PUB-AN3\EGC-ELEM_DE_GRAFICA_PE_CALCULATOR\TEME\TEMA2\VRUMVRUM - V1.0.0.2\LAB2\DEBUG\PYRAMID.OBJ
E:\DROPBOX\PUB-AN3\EGC-ELEM_DE_GRAFICA_PE_CALCULATOR\TEME\TEMA2\VRUMVRUM - V1.0.0.2\LAB2\DEBUG\ROAD.OBJ
E:\DROPBOX\PUB-AN3\EGC-ELEM_DE_GRAFICA_PE_CALCULATOR\TEME\TEMA2\VRUMVRUM - V1.0.0.2\LAB2\DEBUG\SPHERE.OBJ
E:\DROPBOX\PUB-AN3\EGC-ELEM_DE_GRAFICA_PE_CALCULATOR\TEME\TEMA2\VRUMVRUM - V1.0.0.2\LAB2\DEBUG\WEIRD.OBJ
E:\DROPBOX\PUB-AN3\EGC-ELEM_DE_GRAFICA_PE_CALCULATOR\TEME\TEMA2\VRUMVRUM - V1.0.0.2\LAB2\DEBUG\MAIN.OBJ
^E:\DROPBOX\PUB-AN3\EGC-ELEM_DE_GRAFICA_PE_CALCULATOR\TEME\TEMA2\VRUMVRUM - V1.0.0.2\LAB2\FRAMEWORK\DRAWINGWINDOW.CPP
E:\DROPBOX\PUB-AN3\EGC-ELEM_DE_GRAFICA_PE_CALCULATOR\TEME\TEMA2\VRUMVRUM - V1.0.0.2\LAB2\DEBUG\VC120.PDB
^E:\DROPBOX\PUB-AN3\EGC-ELEM_DE_GRAFICA_PE_CALCULATOR\TEME\TEMA2\VRUMVRUM - V1.0.0.2\LAB2\FRAMEWORK\TRANSFORM2D.CPP
E:\DROPBOX\PUB-AN3\EGC-ELEM_DE_GRAFICA_PE_CALCULATOR\TEME\TEMA2\VRUMVRUM - V1.0.0.2\LAB2\DEBUG\VC120.PDB
^E:\DROPBOX\PUB-AN3\EGC-ELEM_DE_GRAFICA_PE_CALCULATOR\TEME\TEMA2\VRUMVRUM - V1.0.0.2\LAB2\FRAMEWORK\TRANSFORM3D.CPP
E:\DROPBOX\PUB-AN3\EGC-ELEM_DE_GRAFICA_PE_CALCULATOR\TEME\TEMA2\VRUMVRUM - V1.0.0.2\LAB2\DEBUG\VC120.PDB
^E:\DROPBOX\PUB-AN3\EGC-ELEM_DE_GRAFICA_PE_CALCULATOR\TEME\TEMA2\VRUMVRUM - V1.0.0.2\LAB2\FRAMEWORK\VISUAL2D.CPP
E:\DROPBOX\PUB-AN3\EGC-ELEM_DE_GRAFICA_PE_CALCULATOR\TEME\TEMA2\VRUMVRUM - V1.0.0.2\LAB2\DEBUG\VC120.PDB
^E:\DROPBOX\PUB-AN3\EGC-ELEM_DE_GRAFICA_PE_CALCULATOR\TEME\TEMA2\VRUMVRUM - V1.0.0.2\LAB2\GAMESTUFF\CAROBSTACLE.CPP
E:\DROPBOX\PUB-AN3\EGC-ELEM_DE_GRAFICA_PE_CALCULATOR\TEME\TEMA2\VRUMVRUM - V1.0.0.2\LAB2\DEBUG\VC120.PDB
^E:\DROPBOX\PUB-AN3\EGC-ELEM_DE_GRAFICA_PE_CALCULATOR\TEME\TEMA2\VRUMVRUM - V1.0.0.2\LAB2\GAMESTUFF\CARSHIP.CPP
E:\DROPBOX\PUB-AN3\EGC-ELEM_DE_GRAFICA_PE_CALCULATOR\TEME\TEMA2\VRUMVRUM - V1.0.0.2\LAB2\DEBUG\VC120.PDB
^E:\DROPBOX\PUB-AN3\EGC-ELEM_DE_GRAFICA_PE_CALCULATOR\TEME\TEMA2\VRUMVRUM - V1.0.0.2\LAB2\GAMESTUFF\CAR\CARBODY.CPP
E:\DROPBOX\PUB-AN3\EGC-ELEM_DE_GRAFICA_PE_CALCULATOR\TEME\TEMA2\VRUMVRUM - V1.0.0.2\LAB2\DEBUG\VC120.PDB
^E:\DROPBOX\PUB-AN3\EGC-ELEM_DE_GRAFICA_PE_CALCULATOR\TEME\TEMA2\VRUMVRUM - V1.0.0.2\LAB2\GAMESTUFF\CAR\WHEEL.CPP
E:\DROPBOX\PUB-AN3\EGC-ELEM_DE_GRAFICA_PE_CALCULATOR\TEME\TEMA2\VRUMVRUM - V1.0.0.2\LAB2\DEBUG\VC120.PDB
^E:\DROPBOX\PUB-AN3\EGC-ELEM_DE_GRAFICA_PE_CALCULATOR\TEME\TEMA2\VRUMVRUM - V1.0.0.2\LAB2\GAMESTUFF\CUBOID.CPP
E:\DROPBOX\PUB-AN3\EGC-ELEM_DE_GRAFICA_PE_CALCULATOR\TEME\TEMA2\VRUMVRUM - V1.0.0.2\LAB2\DEBUG\VC120.PDB
^E:\DROPBOX\PUB-AN3\EGC-ELEM_DE_GRAFICA_PE_CALCULATOR\TEME\TEMA2\VRUMVRUM - V1.0.0.2\LAB2\GAMESTUFF\HEART.CPP
E:\DROPBOX\PUB-AN3\EGC-ELEM_DE_GRAFICA_PE_CALCULATOR\TEME\TEMA2\VRUMVRUM - V1.0.0.2\LAB2\DEBUG\VC120.PDB
^E:\DROPBOX\PUB-AN3\EGC-ELEM_DE_GRAFICA_PE_CALCULATOR\TEME\TEMA2\VRUMVRUM - V1.0.0.2\LAB2\GAMESTUFF\HEXACONE.CPP
E:\DROPBOX\PUB-AN3\EGC-ELEM_DE_GRAFICA_PE_CALCULATOR\TEME\TEMA2\VRUMVRUM - V1.0.0.2\LAB2\DEBUG\VC120.PDB
^E:\DROPBOX\PUB-AN3\EGC-ELEM_DE_GRAFICA_PE_CALCULATOR\TEME\TEMA2\VRUMVRUM - V1.0.0.2\LAB2\GAMESTUFF\CONE.CPP
E:\DROPBOX\PUB-AN3\EGC-ELEM_DE_GRAFICA_PE_CALCULATOR\TEME\TEMA2\VRUMVRUM - V1.0.0.2\LAB2\DEBUG\VC120.PDB
^E:\DROPBOX\PUB-AN3\EGC-ELEM_DE_GRAFICA_PE_CALCULATOR\TEME\TEMA2\VRUMVRUM - V1.0.0.2\LAB2\GAMESTUFF\PYRAMID.CPP
E:\DROPBOX\PUB-AN3\EGC-ELEM_DE_GRAFICA_PE_CALCULATOR\TEME\TEMA2\VRUMVRUM - V1.0.0.2\LAB2\DEBUG\VC120.PDB
^E:\DROPBOX\PUB-AN3\EGC-ELEM_DE_GRAFICA_PE_CALCULATOR\TEME\TEMA2\VRUMVRUM - V1.0.0.2\LAB2\GAMESTUFF\ROAD.CPP
E:\DROPBOX\PUB-AN3\EGC-ELEM_DE_GRAFICA_PE_CALCULATOR\TEME\TEMA2\VRUMVRUM - V1.0.0.2\LAB2\DEBUG\VC120.PDB
^E:\DROPBOX\PUB-AN3\EGC-ELEM_DE_GRAFICA_PE_CALCULATOR\TEME\TEMA2\VRUMVRUM - V1.0.0.2\LAB2\GAMESTUFF\SPHERE.CPP
E:\DROPBOX\PUB-AN3\EGC-ELEM_DE_GRAFICA_PE_CALCULATOR\TEME\TEMA2\VRUMVRUM - V1.0.0.2\LAB2\DEBUG\VC120.PDB
^E:\DROPBOX\PUB-AN3\EGC-ELEM_DE_GRAFICA_PE_CALCULATOR\TEME\TEMA2\VRUMVRUM - V1.0.0.2\LAB2\GAMESTUFF\WEIRD.CPP
E:\DROPBOX\PUB-AN3\EGC-ELEM_DE_GRAFICA_PE_CALCULATOR\TEME\TEMA2\VRUMVRUM - V1.0.0.2\LAB2\DEBUG\VC120.PDB
^E:\DROPBOX\PUB-AN3\EGC-ELEM_DE_GRAFICA_PE_CALCULATOR\TEME\TEMA2\VRUMVRUM - V1.0.0.2\LAB2\MAIN.CPP
E:\DROPBOX\PUB-AN3\EGC-ELEM_DE_GRAFICA_PE_CALCULATOR\TEME\TEMA2\VRUMVRUM - V1.0.0.2\LAB2\DEBUG\VC120.PDB
