^C:\USERS\TASE\DESKTOP\OPENRUN\SOURCES\TRACK.CPP
C:\USERS\TASE\DESKTOP\OPENRUN\DEPENDENTE\GLEW\GLEW.H
C:\PROGRAM FILES (X86)\WINDOWS KITS\8.1\INCLUDE\UM\GL\GLU.H
C:\PROGRAM FILES (X86)\WINDOWS KITS\8.1\INCLUDE\SHARED\WINAPIFAMILY.H
C:\PROGRAM FILES (X86)\WINDOWS KITS\8.1\INCLUDE\UM\GL\GL.H
C:\USERS\TASE\DESKTOP\OPENRUN\DEPENDENTE\GLM\GLM.HPP
C:\USERS\TASE\DESKTOP\OPENRUN\DEPENDENTE\GLM\CORE\_FIXES.HPP
C:\PROGRAM FILES (X86)\MICROSOFT VISUAL STUDIO 12.0\VC\INCLUDE\CMATH
C:\PROGRAM FILES (X86)\MICROSOFT VISUAL STUDIO 12.0\VC\INCLUDE\YVALS.H
C:\PROGRAM FILES (X86)\MICROSOFT VISUAL STUDIO 12.0\VC\INCLUDE\XKEYCHECK.H
C:\PROGRAM FILES (X86)\MICROSOFT VISUAL STUDIO 12.0\VC\INCLUDE\CRTDEFS.H
C:\PROGRAM FILES (X86)\MICROSOFT VISUAL STUDIO 12.0\VC\INCLUDE\SAL.H
C:\PROGRAM FILES (X86)\MICROSOFT VISUAL STUDIO 12.0\VC\INCLUDE\CONCURRENCYSAL.H
C:\PROGRAM FILES (X86)\MICROSOFT VISUAL STUDIO 12.0\VC\INCLUDE\VADEFS.H
C:\PROGRAM FILES (X86)\MICROSOFT VISUAL STUDIO 12.0\VC\INCLUDE\USE_ANSI.H
C:\PROGRAM FILES (X86)\MICROSOFT VISUAL STUDIO 12.0\VC\INCLUDE\MATH.H
C:\PROGRAM FILES (X86)\MICROSOFT VISUAL STUDIO 12.0\VC\INCLUDE\XTGMATH.H
C:\PROGRAM FILES (X86)\MICROSOFT VISUAL STUDIO 12.0\VC\INCLUDE\XTR1COMMON
C:\PROGRAM FILES (X86)\MICROSOFT VISUAL STUDIO 12.0\VC\INCLUDE\CLIMITS
C:\PROGRAM FILES (X86)\MICROSOFT VISUAL STUDIO 12.0\VC\INCLUDE\LIMITS.H
C:\PROGRAM FILES (X86)\MICROSOFT VISUAL STUDIO 12.0\VC\INCLUDE\CFLOAT
C:\PROGRAM FILES (X86)\MICROSOFT VISUAL STUDIO 12.0\VC\INCLUDE\FLOAT.H
C:\PROGRAM FILES (X86)\MICROSOFT VISUAL STUDIO 12.0\VC\INCLUDE\CRTWRN.H
C:\PROGRAM FILES (X86)\MICROSOFT VISUAL STUDIO 12.0\VC\INCLUDE\LIMITS
C:\PROGRAM FILES (X86)\MICROSOFT VISUAL STUDIO 12.0\VC\INCLUDE\YMATH.H
C:\PROGRAM FILES (X86)\MICROSOFT VISUAL STUDIO 12.0\VC\INCLUDE\CWCHAR
C:\PROGRAM FILES (X86)\MICROSOFT VISUAL STUDIO 12.0\VC\INCLUDE\WCHAR.H
C:\PROGRAM FILES (X86)\MICROSOFT VISUAL STUDIO 12.0\VC\INCLUDE\SWPRINTF.INL
C:\PROGRAM FILES (X86)\MICROSOFT VISUAL STUDIO 12.0\VC\INCLUDE\WTIME.INL
C:\PROGRAM FILES (X86)\MICROSOFT VISUAL STUDIO 12.0\VC\INCLUDE\XSTDDEF
C:\PROGRAM FILES (X86)\MICROSOFT VISUAL STUDIO 12.0\VC\INCLUDE\STDLIB.H
C:\PROGRAM FILES (X86)\MICROSOFT VISUAL STUDIO 12.0\VC\INCLUDE\CSTDDEF
C:\PROGRAM FILES (X86)\MICROSOFT VISUAL STUDIO 12.0\VC\INCLUDE\STDDEF.H
C:\PROGRAM FILES (X86)\MICROSOFT VISUAL STUDIO 12.0\VC\INCLUDE\INITIALIZER_LIST
C:\PROGRAM FILES (X86)\MICROSOFT VISUAL STUDIO 12.0\VC\INCLUDE\CSTDIO
C:\PROGRAM FILES (X86)\MICROSOFT VISUAL STUDIO 12.0\VC\INCLUDE\STDIO.H
C:\USERS\TASE\DESKTOP\OPENRUN\DEPENDENTE\GLM\CORE\SETUP.HPP
C:\USERS\TASE\DESKTOP\OPENRUN\DEPENDENTE\GLM\CORE\_DETAIL.HPP
C:\PROGRAM FILES (X86)\MICROSOFT VISUAL STUDIO 12.0\VC\INCLUDE\CASSERT
C:\PROGRAM FILES (X86)\MICROSOFT VISUAL STUDIO 12.0\VC\INCLUDE\ASSERT.H
C:\USERS\TASE\DESKTOP\OPENRUN\DEPENDENTE\GLM\CORE\_VECTORIZE.HPP
C:\USERS\TASE\DESKTOP\OPENRUN\DEPENDENTE\GLM\CORE\TYPE.HPP
C:\USERS\TASE\DESKTOP\OPENRUN\DEPENDENTE\GLM\CORE\TYPE_HALF.HPP
C:\PROGRAM FILES (X86)\MICROSOFT VISUAL STUDIO 12.0\VC\INCLUDE\CSTDLIB
C:\USERS\TASE\DESKTOP\OPENRUN\DEPENDENTE\GLM\CORE\TYPE_HALF.INL
C:\USERS\TASE\DESKTOP\OPENRUN\DEPENDENTE\GLM\CORE\TYPE_FLOAT.HPP
C:\USERS\TASE\DESKTOP\OPENRUN\DEPENDENTE\GLM\CORE\TYPE_INT.HPP
C:\USERS\TASE\DESKTOP\OPENRUN\DEPENDENTE\GLM\CORE\TYPE_GENTYPE.HPP
C:\USERS\TASE\DESKTOP\OPENRUN\DEPENDENTE\GLM\CORE\TYPE_SIZE.HPP
C:\USERS\TASE\DESKTOP\OPENRUN\DEPENDENTE\GLM\CORE\TYPE_VEC1.HPP
C:\USERS\TASE\DESKTOP\OPENRUN\DEPENDENTE\GLM\CORE\TYPE_VEC.HPP
C:\USERS\TASE\DESKTOP\OPENRUN\DEPENDENTE\GLM\CORE\_SWIZZLE.HPP
C:\USERS\TASE\DESKTOP\OPENRUN\DEPENDENTE\GLM\CORE\_SWIZZLE_FUNC.HPP
C:\USERS\TASE\DESKTOP\OPENRUN\DEPENDENTE\GLM\CORE\TYPE_VEC1.INL
C:\USERS\TASE\DESKTOP\OPENRUN\DEPENDENTE\GLM\CORE\TYPE_VEC2.HPP
C:\USERS\TASE\DESKTOP\OPENRUN\DEPENDENTE\GLM\CORE\TYPE_VEC2.INL
C:\USERS\TASE\DESKTOP\OPENRUN\DEPENDENTE\GLM\CORE\TYPE_VEC3.HPP
C:\USERS\TASE\DESKTOP\OPENRUN\DEPENDENTE\GLM\CORE\TYPE_VEC3.INL
C:\USERS\TASE\DESKTOP\OPENRUN\DEPENDENTE\GLM\CORE\TYPE_VEC4.HPP
C:\USERS\TASE\DESKTOP\OPENRUN\DEPENDENTE\GLM\CORE\TYPE_VEC4.INL
C:\USERS\TASE\DESKTOP\OPENRUN\DEPENDENTE\GLM\CORE\TYPE_MAT2X2.HPP
C:\USERS\TASE\DESKTOP\OPENRUN\DEPENDENTE\GLM\CORE\TYPE_MAT.HPP
C:\USERS\TASE\DESKTOP\OPENRUN\DEPENDENTE\GLM\CORE\TYPE_MAT2X2.INL
C:\USERS\TASE\DESKTOP\OPENRUN\DEPENDENTE\GLM\CORE\TYPE_MAT2X3.HPP
C:\USERS\TASE\DESKTOP\OPENRUN\DEPENDENTE\GLM\CORE\TYPE_MAT2X3.INL
C:\USERS\TASE\DESKTOP\OPENRUN\DEPENDENTE\GLM\CORE\TYPE_MAT2X4.HPP
C:\USERS\TASE\DESKTOP\OPENRUN\DEPENDENTE\GLM\CORE\TYPE_MAT2X4.INL
C:\USERS\TASE\DESKTOP\OPENRUN\DEPENDENTE\GLM\CORE\TYPE_MAT3X2.HPP
C:\USERS\TASE\DESKTOP\OPENRUN\DEPENDENTE\GLM\CORE\TYPE_MAT3X2.INL
C:\USERS\TASE\DESKTOP\OPENRUN\DEPENDENTE\GLM\CORE\TYPE_MAT3X3.HPP
C:\USERS\TASE\DESKTOP\OPENRUN\DEPENDENTE\GLM\CORE\TYPE_MAT3X3.INL
C:\USERS\TASE\DESKTOP\OPENRUN\DEPENDENTE\GLM\CORE\TYPE_MAT3X4.HPP
C:\USERS\TASE\DESKTOP\OPENRUN\DEPENDENTE\GLM\CORE\TYPE_MAT3X4.INL
C:\USERS\TASE\DESKTOP\OPENRUN\DEPENDENTE\GLM\CORE\TYPE_MAT4X2.HPP
C:\USERS\TASE\DESKTOP\OPENRUN\DEPENDENTE\GLM\CORE\TYPE_MAT4X2.INL
C:\USERS\TASE\DESKTOP\OPENRUN\DEPENDENTE\GLM\CORE\TYPE_MAT4X3.HPP
C:\USERS\TASE\DESKTOP\OPENRUN\DEPENDENTE\GLM\CORE\TYPE_MAT4X3.INL
C:\USERS\TASE\DESKTOP\OPENRUN\DEPENDENTE\GLM\CORE\TYPE_MAT4X4.HPP
C:\USERS\TASE\DESKTOP\OPENRUN\DEPENDENTE\GLM\CORE\TYPE_MAT4X4.INL
C:\USERS\TASE\DESKTOP\OPENRUN\DEPENDENTE\GLM\CORE\FUNC_TRIGONOMETRIC.HPP
C:\USERS\TASE\DESKTOP\OPENRUN\DEPENDENTE\GLM\CORE\FUNC_TRIGONOMETRIC.INL
C:\USERS\TASE\DESKTOP\OPENRUN\DEPENDENTE\GLM\CORE\FUNC_EXPONENTIAL.HPP
C:\USERS\TASE\DESKTOP\OPENRUN\DEPENDENTE\GLM\CORE\FUNC_EXPONENTIAL.INL
C:\USERS\TASE\DESKTOP\OPENRUN\DEPENDENTE\GLM\CORE\FUNC_COMMON.HPP
C:\USERS\TASE\DESKTOP\OPENRUN\DEPENDENTE\GLM\CORE\FUNC_COMMON.INL
C:\USERS\TASE\DESKTOP\OPENRUN\DEPENDENTE\GLM\CORE\FUNC_PACKING.HPP
C:\USERS\TASE\DESKTOP\OPENRUN\DEPENDENTE\GLM\CORE\FUNC_PACKING.INL
C:\USERS\TASE\DESKTOP\OPENRUN\DEPENDENTE\GLM\CORE\FUNC_GEOMETRIC.HPP
C:\USERS\TASE\DESKTOP\OPENRUN\DEPENDENTE\GLM\CORE\FUNC_GEOMETRIC.INL
C:\USERS\TASE\DESKTOP\OPENRUN\DEPENDENTE\GLM\CORE\FUNC_MATRIX.HPP
C:\USERS\TASE\DESKTOP\OPENRUN\DEPENDENTE\GLM\CORE\FUNC_MATRIX.INL
C:\USERS\TASE\DESKTOP\OPENRUN\DEPENDENTE\GLM\CORE\FUNC_VECTOR_RELATIONAL.HPP
C:\USERS\TASE\DESKTOP\OPENRUN\DEPENDENTE\GLM\CORE\FUNC_VECTOR_RELATIONAL.INL
C:\USERS\TASE\DESKTOP\OPENRUN\DEPENDENTE\GLM\CORE\FUNC_INTEGER.HPP
C:\USERS\TASE\DESKTOP\OPENRUN\DEPENDENTE\GLM\CORE\FUNC_INTEGER.INL
C:\PROGRAM FILES (X86)\MICROSOFT VISUAL STUDIO 12.0\VC\INCLUDE\INTRIN.H
C:\PROGRAM FILES (X86)\MICROSOFT VISUAL STUDIO 12.0\VC\INCLUDE\SETJMP.H
C:\PROGRAM FILES (X86)\MICROSOFT VISUAL STUDIO 12.0\VC\INCLUDE\IMMINTRIN.H
C:\PROGRAM FILES (X86)\MICROSOFT VISUAL STUDIO 12.0\VC\INCLUDE\WMMINTRIN.H
C:\PROGRAM FILES (X86)\MICROSOFT VISUAL STUDIO 12.0\VC\INCLUDE\NMMINTRIN.H
C:\PROGRAM FILES (X86)\MICROSOFT VISUAL STUDIO 12.0\VC\INCLUDE\SMMINTRIN.H
C:\PROGRAM FILES (X86)\MICROSOFT VISUAL STUDIO 12.0\VC\INCLUDE\TMMINTRIN.H
C:\PROGRAM FILES (X86)\MICROSOFT VISUAL STUDIO 12.0\VC\INCLUDE\PMMINTRIN.H
C:\PROGRAM FILES (X86)\MICROSOFT VISUAL STUDIO 12.0\VC\INCLUDE\EMMINTRIN.H
C:\PROGRAM FILES (X86)\MICROSOFT VISUAL STUDIO 12.0\VC\INCLUDE\XMMINTRIN.H
C:\PROGRAM FILES (X86)\MICROSOFT VISUAL STUDIO 12.0\VC\INCLUDE\MMINTRIN.H
C:\PROGRAM FILES (X86)\MICROSOFT VISUAL STUDIO 12.0\VC\INCLUDE\MALLOC.H
C:\PROGRAM FILES (X86)\MICROSOFT VISUAL STUDIO 12.0\VC\INCLUDE\AMMINTRIN.H
C:\PROGRAM FILES (X86)\MICROSOFT VISUAL STUDIO 12.0\VC\INCLUDE\MM3DNOW.H
C:\USERS\TASE\DESKTOP\OPENRUN\DEPENDENTE\GLM\CORE\FUNC_NOISE.HPP
C:\USERS\TASE\DESKTOP\OPENRUN\DEPENDENTE\GLM\CORE\FUNC_NOISE.INL
C:\USERS\TASE\DESKTOP\OPENRUN\DEPENDENTE\GLM\GTC\TYPE_PTR.HPP
C:\USERS\TASE\DESKTOP\OPENRUN\DEPENDENTE\GLM\GTC\HALF_FLOAT.HPP
C:\USERS\TASE\DESKTOP\OPENRUN\DEPENDENTE\GLM\GTC\HALF_FLOAT.INL
C:\USERS\TASE\DESKTOP\OPENRUN\DEPENDENTE\GLM\GTC\QUATERNION.HPP
C:\USERS\TASE\DESKTOP\OPENRUN\DEPENDENTE\GLM\GTC\CONSTANTS.HPP
C:\USERS\TASE\DESKTOP\OPENRUN\DEPENDENTE\GLM\GTC\CONSTANTS.INL
C:\USERS\TASE\DESKTOP\OPENRUN\DEPENDENTE\GLM\GTC\QUATERNION.INL
C:\PROGRAM FILES (X86)\MICROSOFT VISUAL STUDIO 12.0\VC\INCLUDE\CSTRING
C:\PROGRAM FILES (X86)\MICROSOFT VISUAL STUDIO 12.0\VC\INCLUDE\STRING.H
C:\USERS\TASE\DESKTOP\OPENRUN\DEPENDENTE\GLM\GTC\TYPE_PTR.INL
C:\USERS\TASE\DESKTOP\OPENRUN\DEPENDENTE\GLM\GTC\MATRIX_TRANSFORM.HPP
C:\USERS\TASE\DESKTOP\OPENRUN\DEPENDENTE\GLM\GTC\MATRIX_TRANSFORM.INL
C:\PROGRAM FILES (X86)\MICROSOFT VISUAL STUDIO 12.0\VC\INCLUDE\FSTREAM
C:\PROGRAM FILES (X86)\MICROSOFT VISUAL STUDIO 12.0\VC\INCLUDE\ISTREAM
C:\PROGRAM FILES (X86)\MICROSOFT VISUAL STUDIO 12.0\VC\INCLUDE\OSTREAM
C:\PROGRAM FILES (X86)\MICROSOFT VISUAL STUDIO 12.0\VC\INCLUDE\IOS
C:\PROGRAM FILES (X86)\MICROSOFT VISUAL STUDIO 12.0\VC\INCLUDE\XLOCNUM
C:\PROGRAM FILES (X86)\MICROSOFT VISUAL STUDIO 12.0\VC\INCLUDE\STREAMBUF
C:\PROGRAM FILES (X86)\MICROSOFT VISUAL STUDIO 12.0\VC\INCLUDE\XIOSBASE
C:\PROGRAM FILES (X86)\MICROSOFT VISUAL STUDIO 12.0\VC\INCLUDE\XLOCALE
C:\PROGRAM FILES (X86)\MICROSOFT VISUAL STUDIO 12.0\VC\INCLUDE\STDEXCEPT
C:\PROGRAM FILES (X86)\MICROSOFT VISUAL STUDIO 12.0\VC\INCLUDE\EXCEPTION
C:\PROGRAM FILES (X86)\MICROSOFT VISUAL STUDIO 12.0\VC\INCLUDE\EH.H
C:\PROGRAM FILES (X86)\MICROSOFT VISUAL STUDIO 12.0\VC\INCLUDE\XSTRING
C:\PROGRAM FILES (X86)\MICROSOFT VISUAL STUDIO 12.0\VC\INCLUDE\XMEMORY0
C:\PROGRAM FILES (X86)\MICROSOFT VISUAL STUDIO 12.0\VC\INCLUDE\NEW
C:\PROGRAM FILES (X86)\MICROSOFT VISUAL STUDIO 12.0\VC\INCLUDE\XUTILITY
C:\PROGRAM FILES (X86)\MICROSOFT VISUAL STUDIO 12.0\VC\INCLUDE\UTILITY
C:\PROGRAM FILES (X86)\MICROSOFT VISUAL STUDIO 12.0\VC\INCLUDE\IOSFWD
C:\PROGRAM FILES (X86)\MICROSOFT VISUAL STUDIO 12.0\VC\INCLUDE\CRTDBG.H
C:\PROGRAM FILES (X86)\MICROSOFT VISUAL STUDIO 12.0\VC\INCLUDE\TYPE_TRAITS
C:\PROGRAM FILES (X86)\MICROSOFT VISUAL STUDIO 12.0\VC\INCLUDE\XREFWRAP
C:\PROGRAM FILES (X86)\MICROSOFT VISUAL STUDIO 12.0\VC\INCLUDE\XATOMIC0.H
C:\PROGRAM FILES (X86)\MICROSOFT VISUAL STUDIO 12.0\VC\INCLUDE\TYPEINFO
C:\PROGRAM FILES (X86)\MICROSOFT VISUAL STUDIO 12.0\VC\INCLUDE\XLOCINFO
C:\PROGRAM FILES (X86)\MICROSOFT VISUAL STUDIO 12.0\VC\INCLUDE\XLOCINFO.H
C:\PROGRAM FILES (X86)\MICROSOFT VISUAL STUDIO 12.0\VC\INCLUDE\CTYPE.H
C:\PROGRAM FILES (X86)\MICROSOFT VISUAL STUDIO 12.0\VC\INCLUDE\LOCALE.H
C:\PROGRAM FILES (X86)\MICROSOFT VISUAL STUDIO 12.0\VC\INCLUDE\XDEBUG
C:\PROGRAM FILES (X86)\MICROSOFT VISUAL STUDIO 12.0\VC\INCLUDE\XFACET
C:\PROGRAM FILES (X86)\MICROSOFT VISUAL STUDIO 12.0\VC\INCLUDE\SYSTEM_ERROR
C:\PROGRAM FILES (X86)\MICROSOFT VISUAL STUDIO 12.0\VC\INCLUDE\CERRNO
C:\PROGRAM FILES (X86)\MICROSOFT VISUAL STUDIO 12.0\VC\INCLUDE\ERRNO.H
C:\PROGRAM FILES (X86)\MICROSOFT VISUAL STUDIO 12.0\VC\INCLUDE\SHARE.H
C:\PROGRAM FILES (X86)\MICROSOFT VISUAL STUDIO 12.0\VC\INCLUDE\IOSTREAM
C:\PROGRAM FILES (X86)\MICROSOFT VISUAL STUDIO 12.0\VC\INCLUDE\STRING
C:\PROGRAM FILES (X86)\MICROSOFT VISUAL STUDIO 12.0\VC\INCLUDE\ITERATOR
C:\PROGRAM FILES (X86)\MICROSOFT VISUAL STUDIO 12.0\VC\INCLUDE\VECTOR
C:\PROGRAM FILES (X86)\MICROSOFT VISUAL STUDIO 12.0\VC\INCLUDE\XMEMORY
C:\PROGRAM FILES (X86)\MICROSOFT VISUAL STUDIO 12.0\VC\INCLUDE\SSTREAM
C:\USERS\TASE\DESKTOP\OPENRUN\SOURCES\DEFINES.H
C:\USERS\TASE\DESKTOP\OPENRUN\SOURCES\VERTEX.H
^C:\USERS\TASE\DESKTOP\OPENRUN\SOURCES\FLAG.CPP
C:\USERS\TASE\DESKTOP\OPENRUN\DEPENDENTE\GLEW\GLEW.H
C:\PROGRAM FILES (X86)\WINDOWS KITS\8.1\INCLUDE\UM\GL\GLU.H
C:\PROGRAM FILES (X86)\WINDOWS KITS\8.1\INCLUDE\SHARED\WINAPIFAMILY.H
C:\PROGRAM FILES (X86)\WINDOWS KITS\8.1\INCLUDE\UM\GL\GL.H
C:\USERS\TASE\DESKTOP\OPENRUN\DEPENDENTE\GLM\GLM.HPP
C:\USERS\TASE\DESKTOP\OPENRUN\DEPENDENTE\GLM\CORE\_FIXES.HPP
C:\PROGRAM FILES (X86)\MICROSOFT VISUAL STUDIO 12.0\VC\INCLUDE\CMATH
C:\PROGRAM FILES (X86)\MICROSOFT VISUAL STUDIO 12.0\VC\INCLUDE\YVALS.H
C:\PROGRAM FILES (X86)\MICROSOFT VISUAL STUDIO 12.0\VC\INCLUDE\XKEYCHECK.H
C:\PROGRAM FILES (X86)\MICROSOFT VISUAL STUDIO 12.0\VC\INCLUDE\CRTDEFS.H
C:\PROGRAM FILES (X86)\MICROSOFT VISUAL STUDIO 12.0\VC\INCLUDE\SAL.H
C:\PROGRAM FILES (X86)\MICROSOFT VISUAL STUDIO 12.0\VC\INCLUDE\CONCURRENCYSAL.H
C:\PROGRAM FILES (X86)\MICROSOFT VISUAL STUDIO 12.0\VC\INCLUDE\VADEFS.H
C:\PROGRAM FILES (X86)\MICROSOFT VISUAL STUDIO 12.0\VC\INCLUDE\USE_ANSI.H
C:\PROGRAM FILES (X86)\MICROSOFT VISUAL STUDIO 12.0\VC\INCLUDE\MATH.H
C:\PROGRAM FILES (X86)\MICROSOFT VISUAL STUDIO 12.0\VC\INCLUDE\XTGMATH.H
C:\PROGRAM FILES (X86)\MICROSOFT VISUAL STUDIO 12.0\VC\INCLUDE\XTR1COMMON
C:\PROGRAM FILES (X86)\MICROSOFT VISUAL STUDIO 12.0\VC\INCLUDE\CLIMITS
C:\PROGRAM FILES (X86)\MICROSOFT VISUAL STUDIO 12.0\VC\INCLUDE\LIMITS.H
C:\PROGRAM FILES (X86)\MICROSOFT VISUAL STUDIO 12.0\VC\INCLUDE\CFLOAT
C:\PROGRAM FILES (X86)\MICROSOFT VISUAL STUDIO 12.0\VC\INCLUDE\FLOAT.H
C:\PROGRAM FILES (X86)\MICROSOFT VISUAL STUDIO 12.0\VC\INCLUDE\CRTWRN.H
C:\PROGRAM FILES (X86)\MICROSOFT VISUAL STUDIO 12.0\VC\INCLUDE\LIMITS
C:\PROGRAM FILES (X86)\MICROSOFT VISUAL STUDIO 12.0\VC\INCLUDE\YMATH.H
C:\PROGRAM FILES (X86)\MICROSOFT VISUAL STUDIO 12.0\VC\INCLUDE\CWCHAR
C:\PROGRAM FILES (X86)\MICROSOFT VISUAL STUDIO 12.0\VC\INCLUDE\WCHAR.H
C:\PROGRAM FILES (X86)\MICROSOFT VISUAL STUDIO 12.0\VC\INCLUDE\SWPRINTF.INL
C:\PROGRAM FILES (X86)\MICROSOFT VISUAL STUDIO 12.0\VC\INCLUDE\WTIME.INL
C:\PROGRAM FILES (X86)\MICROSOFT VISUAL STUDIO 12.0\VC\INCLUDE\XSTDDEF
C:\PROGRAM FILES (X86)\MICROSOFT VISUAL STUDIO 12.0\VC\INCLUDE\STDLIB.H
C:\PROGRAM FILES (X86)\MICROSOFT VISUAL STUDIO 12.0\VC\INCLUDE\CSTDDEF
C:\PROGRAM FILES (X86)\MICROSOFT VISUAL STUDIO 12.0\VC\INCLUDE\STDDEF.H
C:\PROGRAM FILES (X86)\MICROSOFT VISUAL STUDIO 12.0\VC\INCLUDE\INITIALIZER_LIST
C:\PROGRAM FILES (X86)\MICROSOFT VISUAL STUDIO 12.0\VC\INCLUDE\CSTDIO
C:\PROGRAM FILES (X86)\MICROSOFT VISUAL STUDIO 12.0\VC\INCLUDE\STDIO.H
C:\USERS\TASE\DESKTOP\OPENRUN\DEPENDENTE\GLM\CORE\SETUP.HPP
C:\USERS\TASE\DESKTOP\OPENRUN\DEPENDENTE\GLM\CORE\_DETAIL.HPP
C:\PROGRAM FILES (X86)\MICROSOFT VISUAL STUDIO 12.0\VC\INCLUDE\CASSERT
C:\PROGRAM FILES (X86)\MICROSOFT VISUAL STUDIO 12.0\VC\INCLUDE\ASSERT.H
C:\USERS\TASE\DESKTOP\OPENRUN\DEPENDENTE\GLM\CORE\_VECTORIZE.HPP
C:\USERS\TASE\DESKTOP\OPENRUN\DEPENDENTE\GLM\CORE\TYPE.HPP
C:\USERS\TASE\DESKTOP\OPENRUN\DEPENDENTE\GLM\CORE\TYPE_HALF.HPP
C:\PROGRAM FILES (X86)\MICROSOFT VISUAL STUDIO 12.0\VC\INCLUDE\CSTDLIB
C:\USERS\TASE\DESKTOP\OPENRUN\DEPENDENTE\GLM\CORE\TYPE_HALF.INL
C:\USERS\TASE\DESKTOP\OPENRUN\DEPENDENTE\GLM\CORE\TYPE_FLOAT.HPP
C:\USERS\TASE\DESKTOP\OPENRUN\DEPENDENTE\GLM\CORE\TYPE_INT.HPP
C:\USERS\TASE\DESKTOP\OPENRUN\DEPENDENTE\GLM\CORE\TYPE_GENTYPE.HPP
C:\USERS\TASE\DESKTOP\OPENRUN\DEPENDENTE\GLM\CORE\TYPE_SIZE.HPP
C:\USERS\TASE\DESKTOP\OPENRUN\DEPENDENTE\GLM\CORE\TYPE_VEC1.HPP
C:\USERS\TASE\DESKTOP\OPENRUN\DEPENDENTE\GLM\CORE\TYPE_VEC.HPP
C:\USERS\TASE\DESKTOP\OPENRUN\DEPENDENTE\GLM\CORE\_SWIZZLE.HPP
C:\USERS\TASE\DESKTOP\OPENRUN\DEPENDENTE\GLM\CORE\_SWIZZLE_FUNC.HPP
C:\USERS\TASE\DESKTOP\OPENRUN\DEPENDENTE\GLM\CORE\TYPE_VEC1.INL
C:\USERS\TASE\DESKTOP\OPENRUN\DEPENDENTE\GLM\CORE\TYPE_VEC2.HPP
C:\USERS\TASE\DESKTOP\OPENRUN\DEPENDENTE\GLM\CORE\TYPE_VEC2.INL
C:\USERS\TASE\DESKTOP\OPENRUN\DEPENDENTE\GLM\CORE\TYPE_VEC3.HPP
C:\USERS\TASE\DESKTOP\OPENRUN\DEPENDENTE\GLM\CORE\TYPE_VEC3.INL
C:\USERS\TASE\DESKTOP\OPENRUN\DEPENDENTE\GLM\CORE\TYPE_VEC4.HPP
C:\USERS\TASE\DESKTOP\OPENRUN\DEPENDENTE\GLM\CORE\TYPE_VEC4.INL
C:\USERS\TASE\DESKTOP\OPENRUN\DEPENDENTE\GLM\CORE\TYPE_MAT2X2.HPP
C:\USERS\TASE\DESKTOP\OPENRUN\DEPENDENTE\GLM\CORE\TYPE_MAT.HPP
C:\USERS\TASE\DESKTOP\OPENRUN\DEPENDENTE\GLM\CORE\TYPE_MAT2X2.INL
C:\USERS\TASE\DESKTOP\OPENRUN\DEPENDENTE\GLM\CORE\TYPE_MAT2X3.HPP
C:\USERS\TASE\DESKTOP\OPENRUN\DEPENDENTE\GLM\CORE\TYPE_MAT2X3.INL
C:\USERS\TASE\DESKTOP\OPENRUN\DEPENDENTE\GLM\CORE\TYPE_MAT2X4.HPP
C:\USERS\TASE\DESKTOP\OPENRUN\DEPENDENTE\GLM\CORE\TYPE_MAT2X4.INL
C:\USERS\TASE\DESKTOP\OPENRUN\DEPENDENTE\GLM\CORE\TYPE_MAT3X2.HPP
C:\USERS\TASE\DESKTOP\OPENRUN\DEPENDENTE\GLM\CORE\TYPE_MAT3X2.INL
C:\USERS\TASE\DESKTOP\OPENRUN\DEPENDENTE\GLM\CORE\TYPE_MAT3X3.HPP
C:\USERS\TASE\DESKTOP\OPENRUN\DEPENDENTE\GLM\CORE\TYPE_MAT3X3.INL
C:\USERS\TASE\DESKTOP\OPENRUN\DEPENDENTE\GLM\CORE\TYPE_MAT3X4.HPP
C:\USERS\TASE\DESKTOP\OPENRUN\DEPENDENTE\GLM\CORE\TYPE_MAT3X4.INL
C:\USERS\TASE\DESKTOP\OPENRUN\DEPENDENTE\GLM\CORE\TYPE_MAT4X2.HPP
C:\USERS\TASE\DESKTOP\OPENRUN\DEPENDENTE\GLM\CORE\TYPE_MAT4X2.INL
C:\USERS\TASE\DESKTOP\OPENRUN\DEPENDENTE\GLM\CORE\TYPE_MAT4X3.HPP
C:\USERS\TASE\DESKTOP\OPENRUN\DEPENDENTE\GLM\CORE\TYPE_MAT4X3.INL
C:\USERS\TASE\DESKTOP\OPENRUN\DEPENDENTE\GLM\CORE\TYPE_MAT4X4.HPP
C:\USERS\TASE\DESKTOP\OPENRUN\DEPENDENTE\GLM\CORE\TYPE_MAT4X4.INL
C:\USERS\TASE\DESKTOP\OPENRUN\DEPENDENTE\GLM\CORE\FUNC_TRIGONOMETRIC.HPP
C:\USERS\TASE\DESKTOP\OPENRUN\DEPENDENTE\GLM\CORE\FUNC_TRIGONOMETRIC.INL
C:\USERS\TASE\DESKTOP\OPENRUN\DEPENDENTE\GLM\CORE\FUNC_EXPONENTIAL.HPP
C:\USERS\TASE\DESKTOP\OPENRUN\DEPENDENTE\GLM\CORE\FUNC_EXPONENTIAL.INL
C:\USERS\TASE\DESKTOP\OPENRUN\DEPENDENTE\GLM\CORE\FUNC_COMMON.HPP
C:\USERS\TASE\DESKTOP\OPENRUN\DEPENDENTE\GLM\CORE\FUNC_COMMON.INL
C:\USERS\TASE\DESKTOP\OPENRUN\DEPENDENTE\GLM\CORE\FUNC_PACKING.HPP
C:\USERS\TASE\DESKTOP\OPENRUN\DEPENDENTE\GLM\CORE\FUNC_PACKING.INL
C:\USERS\TASE\DESKTOP\OPENRUN\DEPENDENTE\GLM\CORE\FUNC_GEOMETRIC.HPP
C:\USERS\TASE\DESKTOP\OPENRUN\DEPENDENTE\GLM\CORE\FUNC_GEOMETRIC.INL
C:\USERS\TASE\DESKTOP\OPENRUN\DEPENDENTE\GLM\CORE\FUNC_MATRIX.HPP
C:\USERS\TASE\DESKTOP\OPENRUN\DEPENDENTE\GLM\CORE\FUNC_MATRIX.INL
C:\USERS\TASE\DESKTOP\OPENRUN\DEPENDENTE\GLM\CORE\FUNC_VECTOR_RELATIONAL.HPP
C:\USERS\TASE\DESKTOP\OPENRUN\DEPENDENTE\GLM\CORE\FUNC_VECTOR_RELATIONAL.INL
C:\USERS\TASE\DESKTOP\OPENRUN\DEPENDENTE\GLM\CORE\FUNC_INTEGER.HPP
C:\USERS\TASE\DESKTOP\OPENRUN\DEPENDENTE\GLM\CORE\FUNC_INTEGER.INL
C:\PROGRAM FILES (X86)\MICROSOFT VISUAL STUDIO 12.0\VC\INCLUDE\INTRIN.H
C:\PROGRAM FILES (X86)\MICROSOFT VISUAL STUDIO 12.0\VC\INCLUDE\SETJMP.H
C:\PROGRAM FILES (X86)\MICROSOFT VISUAL STUDIO 12.0\VC\INCLUDE\IMMINTRIN.H
C:\PROGRAM FILES (X86)\MICROSOFT VISUAL STUDIO 12.0\VC\INCLUDE\WMMINTRIN.H
C:\PROGRAM FILES (X86)\MICROSOFT VISUAL STUDIO 12.0\VC\INCLUDE\NMMINTRIN.H
C:\PROGRAM FILES (X86)\MICROSOFT VISUAL STUDIO 12.0\VC\INCLUDE\SMMINTRIN.H
C:\PROGRAM FILES (X86)\MICROSOFT VISUAL STUDIO 12.0\VC\INCLUDE\TMMINTRIN.H
C:\PROGRAM FILES (X86)\MICROSOFT VISUAL STUDIO 12.0\VC\INCLUDE\PMMINTRIN.H
C:\PROGRAM FILES (X86)\MICROSOFT VISUAL STUDIO 12.0\VC\INCLUDE\EMMINTRIN.H
C:\PROGRAM FILES (X86)\MICROSOFT VISUAL STUDIO 12.0\VC\INCLUDE\XMMINTRIN.H
C:\PROGRAM FILES (X86)\MICROSOFT VISUAL STUDIO 12.0\VC\INCLUDE\MMINTRIN.H
C:\PROGRAM FILES (X86)\MICROSOFT VISUAL STUDIO 12.0\VC\INCLUDE\MALLOC.H
C:\PROGRAM FILES (X86)\MICROSOFT VISUAL STUDIO 12.0\VC\INCLUDE\AMMINTRIN.H
C:\PROGRAM FILES (X86)\MICROSOFT VISUAL STUDIO 12.0\VC\INCLUDE\MM3DNOW.H
C:\USERS\TASE\DESKTOP\OPENRUN\DEPENDENTE\GLM\CORE\FUNC_NOISE.HPP
C:\USERS\TASE\DESKTOP\OPENRUN\DEPENDENTE\GLM\CORE\FUNC_NOISE.INL
C:\USERS\TASE\DESKTOP\OPENRUN\DEPENDENTE\GLM\GTC\TYPE_PTR.HPP
C:\USERS\TASE\DESKTOP\OPENRUN\DEPENDENTE\GLM\GTC\HALF_FLOAT.HPP
C:\USERS\TASE\DESKTOP\OPENRUN\DEPENDENTE\GLM\GTC\HALF_FLOAT.INL
C:\USERS\TASE\DESKTOP\OPENRUN\DEPENDENTE\GLM\GTC\QUATERNION.HPP
C:\USERS\TASE\DESKTOP\OPENRUN\DEPENDENTE\GLM\GTC\CONSTANTS.HPP
C:\USERS\TASE\DESKTOP\OPENRUN\DEPENDENTE\GLM\GTC\CONSTANTS.INL
C:\USERS\TASE\DESKTOP\OPENRUN\DEPENDENTE\GLM\GTC\QUATERNION.INL
C:\PROGRAM FILES (X86)\MICROSOFT VISUAL STUDIO 12.0\VC\INCLUDE\CSTRING
C:\PROGRAM FILES (X86)\MICROSOFT VISUAL STUDIO 12.0\VC\INCLUDE\STRING.H
C:\USERS\TASE\DESKTOP\OPENRUN\DEPENDENTE\GLM\GTC\TYPE_PTR.INL
C:\USERS\TASE\DESKTOP\OPENRUN\DEPENDENTE\GLM\GTC\MATRIX_TRANSFORM.HPP
C:\USERS\TASE\DESKTOP\OPENRUN\DEPENDENTE\GLM\GTC\MATRIX_TRANSFORM.INL
C:\USERS\TASE\DESKTOP\OPENRUN\LAB_CAMERA.HPP
C:\PROGRAM FILES (X86)\MICROSOFT VISUAL STUDIO 12.0\VC\INCLUDE\VECTOR
C:\PROGRAM FILES (X86)\MICROSOFT VISUAL STUDIO 12.0\VC\INCLUDE\XMEMORY
C:\PROGRAM FILES (X86)\MICROSOFT VISUAL STUDIO 12.0\VC\INCLUDE\XMEMORY0
C:\PROGRAM FILES (X86)\MICROSOFT VISUAL STUDIO 12.0\VC\INCLUDE\NEW
C:\PROGRAM FILES (X86)\MICROSOFT VISUAL STUDIO 12.0\VC\INCLUDE\EXCEPTION
C:\PROGRAM FILES (X86)\MICROSOFT VISUAL STUDIO 12.0\VC\INCLUDE\EH.H
C:\PROGRAM FILES (X86)\MICROSOFT VISUAL STUDIO 12.0\VC\INCLUDE\XUTILITY
C:\PROGRAM FILES (X86)\MICROSOFT VISUAL STUDIO 12.0\VC\INCLUDE\UTILITY
C:\PROGRAM FILES (X86)\MICROSOFT VISUAL STUDIO 12.0\VC\INCLUDE\IOSFWD
C:\PROGRAM FILES (X86)\MICROSOFT VISUAL STUDIO 12.0\VC\INCLUDE\CRTDBG.H
C:\PROGRAM FILES (X86)\MICROSOFT VISUAL STUDIO 12.0\VC\INCLUDE\TYPE_TRAITS
C:\PROGRAM FILES (X86)\MICROSOFT VISUAL STUDIO 12.0\VC\INCLUDE\XREFWRAP
C:\PROGRAM FILES (X86)\MICROSOFT VISUAL STUDIO 12.0\VC\INCLUDE\XATOMIC0.H
C:\PROGRAM FILES (X86)\MICROSOFT VISUAL STUDIO 12.0\VC\INCLUDE\STDEXCEPT
C:\PROGRAM FILES (X86)\MICROSOFT VISUAL STUDIO 12.0\VC\INCLUDE\XSTRING
C:\USERS\TASE\DESKTOP\OPENRUN\SOURCES\DEFINES.H
C:\USERS\TASE\DESKTOP\OPENRUN\SOURCES\VERTEX.H
^C:\USERS\TASE\DESKTOP\OPENRUN\SOURCES\CHARACTER.CPP
C:\USERS\TASE\DESKTOP\OPENRUN\DEPENDENTE\GLEW\GLEW.H
C:\PROGRAM FILES (X86)\WINDOWS KITS\8.1\INCLUDE\UM\GL\GLU.H
C:\PROGRAM FILES (X86)\WINDOWS KITS\8.1\INCLUDE\SHARED\WINAPIFAMILY.H
C:\PROGRAM FILES (X86)\WINDOWS KITS\8.1\INCLUDE\UM\GL\GL.H
C:\USERS\TASE\DESKTOP\OPENRUN\DEPENDENTE\GLM\GLM.HPP
C:\USERS\TASE\DESKTOP\OPENRUN\DEPENDENTE\GLM\CORE\_FIXES.HPP
C:\PROGRAM FILES (X86)\MICROSOFT VISUAL STUDIO 12.0\VC\INCLUDE\CMATH
C:\PROGRAM FILES (X86)\MICROSOFT VISUAL STUDIO 12.0\VC\INCLUDE\YVALS.H
C:\PROGRAM FILES (X86)\MICROSOFT VISUAL STUDIO 12.0\VC\INCLUDE\XKEYCHECK.H
C:\PROGRAM FILES (X86)\MICROSOFT VISUAL STUDIO 12.0\VC\INCLUDE\CRTDEFS.H
C:\PROGRAM FILES (X86)\MICROSOFT VISUAL STUDIO 12.0\VC\INCLUDE\SAL.H
C:\PROGRAM FILES (X86)\MICROSOFT VISUAL STUDIO 12.0\VC\INCLUDE\CONCURRENCYSAL.H
C:\PROGRAM FILES (X86)\MICROSOFT VISUAL STUDIO 12.0\VC\INCLUDE\VADEFS.H
C:\PROGRAM FILES (X86)\MICROSOFT VISUAL STUDIO 12.0\VC\INCLUDE\USE_ANSI.H
C:\PROGRAM FILES (X86)\MICROSOFT VISUAL STUDIO 12.0\VC\INCLUDE\MATH.H
C:\PROGRAM FILES (X86)\MICROSOFT VISUAL STUDIO 12.0\VC\INCLUDE\XTGMATH.H
C:\PROGRAM FILES (X86)\MICROSOFT VISUAL STUDIO 12.0\VC\INCLUDE\XTR1COMMON
C:\PROGRAM FILES (X86)\MICROSOFT VISUAL STUDIO 12.0\VC\INCLUDE\CLIMITS
C:\PROGRAM FILES (X86)\MICROSOFT VISUAL STUDIO 12.0\VC\INCLUDE\LIMITS.H
C:\PROGRAM FILES (X86)\MICROSOFT VISUAL STUDIO 12.0\VC\INCLUDE\CFLOAT
C:\PROGRAM FILES (X86)\MICROSOFT VISUAL STUDIO 12.0\VC\INCLUDE\FLOAT.H
C:\PROGRAM FILES (X86)\MICROSOFT VISUAL STUDIO 12.0\VC\INCLUDE\CRTWRN.H
C:\PROGRAM FILES (X86)\MICROSOFT VISUAL STUDIO 12.0\VC\INCLUDE\LIMITS
C:\PROGRAM FILES (X86)\MICROSOFT VISUAL STUDIO 12.0\VC\INCLUDE\YMATH.H
C:\PROGRAM FILES (X86)\MICROSOFT VISUAL STUDIO 12.0\VC\INCLUDE\CWCHAR
C:\PROGRAM FILES (X86)\MICROSOFT VISUAL STUDIO 12.0\VC\INCLUDE\WCHAR.H
C:\PROGRAM FILES (X86)\MICROSOFT VISUAL STUDIO 12.0\VC\INCLUDE\SWPRINTF.INL
C:\PROGRAM FILES (X86)\MICROSOFT VISUAL STUDIO 12.0\VC\INCLUDE\WTIME.INL
C:\PROGRAM FILES (X86)\MICROSOFT VISUAL STUDIO 12.0\VC\INCLUDE\XSTDDEF
C:\PROGRAM FILES (X86)\MICROSOFT VISUAL STUDIO 12.0\VC\INCLUDE\STDLIB.H
C:\PROGRAM FILES (X86)\MICROSOFT VISUAL STUDIO 12.0\VC\INCLUDE\CSTDDEF
C:\PROGRAM FILES (X86)\MICROSOFT VISUAL STUDIO 12.0\VC\INCLUDE\STDDEF.H
C:\PROGRAM FILES (X86)\MICROSOFT VISUAL STUDIO 12.0\VC\INCLUDE\INITIALIZER_LIST
C:\PROGRAM FILES (X86)\MICROSOFT VISUAL STUDIO 12.0\VC\INCLUDE\CSTDIO
C:\PROGRAM FILES (X86)\MICROSOFT VISUAL STUDIO 12.0\VC\INCLUDE\STDIO.H
C:\USERS\TASE\DESKTOP\OPENRUN\DEPENDENTE\GLM\CORE\SETUP.HPP
C:\USERS\TASE\DESKTOP\OPENRUN\DEPENDENTE\GLM\CORE\_DETAIL.HPP
C:\PROGRAM FILES (X86)\MICROSOFT VISUAL STUDIO 12.0\VC\INCLUDE\CASSERT
C:\PROGRAM FILES (X86)\MICROSOFT VISUAL STUDIO 12.0\VC\INCLUDE\ASSERT.H
C:\USERS\TASE\DESKTOP\OPENRUN\DEPENDENTE\GLM\CORE\_VECTORIZE.HPP
C:\USERS\TASE\DESKTOP\OPENRUN\DEPENDENTE\GLM\CORE\TYPE.HPP
C:\USERS\TASE\DESKTOP\OPENRUN\DEPENDENTE\GLM\CORE\TYPE_HALF.HPP
C:\PROGRAM FILES (X86)\MICROSOFT VISUAL STUDIO 12.0\VC\INCLUDE\CSTDLIB
C:\USERS\TASE\DESKTOP\OPENRUN\DEPENDENTE\GLM\CORE\TYPE_HALF.INL
C:\USERS\TASE\DESKTOP\OPENRUN\DEPENDENTE\GLM\CORE\TYPE_FLOAT.HPP
C:\USERS\TASE\DESKTOP\OPENRUN\DEPENDENTE\GLM\CORE\TYPE_INT.HPP
C:\USERS\TASE\DESKTOP\OPENRUN\DEPENDENTE\GLM\CORE\TYPE_GENTYPE.HPP
C:\USERS\TASE\DESKTOP\OPENRUN\DEPENDENTE\GLM\CORE\TYPE_SIZE.HPP
C:\USERS\TASE\DESKTOP\OPENRUN\DEPENDENTE\GLM\CORE\TYPE_VEC1.HPP
C:\USERS\TASE\DESKTOP\OPENRUN\DEPENDENTE\GLM\CORE\TYPE_VEC.HPP
C:\USERS\TASE\DESKTOP\OPENRUN\DEPENDENTE\GLM\CORE\_SWIZZLE.HPP
C:\USERS\TASE\DESKTOP\OPENRUN\DEPENDENTE\GLM\CORE\_SWIZZLE_FUNC.HPP
C:\USERS\TASE\DESKTOP\OPENRUN\DEPENDENTE\GLM\CORE\TYPE_VEC1.INL
C:\USERS\TASE\DESKTOP\OPENRUN\DEPENDENTE\GLM\CORE\TYPE_VEC2.HPP
C:\USERS\TASE\DESKTOP\OPENRUN\DEPENDENTE\GLM\CORE\TYPE_VEC2.INL
C:\USERS\TASE\DESKTOP\OPENRUN\DEPENDENTE\GLM\CORE\TYPE_VEC3.HPP
C:\USERS\TASE\DESKTOP\OPENRUN\DEPENDENTE\GLM\CORE\TYPE_VEC3.INL
C:\USERS\TASE\DESKTOP\OPENRUN\DEPENDENTE\GLM\CORE\TYPE_VEC4.HPP
C:\USERS\TASE\DESKTOP\OPENRUN\DEPENDENTE\GLM\CORE\TYPE_VEC4.INL
C:\USERS\TASE\DESKTOP\OPENRUN\DEPENDENTE\GLM\CORE\TYPE_MAT2X2.HPP
C:\USERS\TASE\DESKTOP\OPENRUN\DEPENDENTE\GLM\CORE\TYPE_MAT.HPP
C:\USERS\TASE\DESKTOP\OPENRUN\DEPENDENTE\GLM\CORE\TYPE_MAT2X2.INL
C:\USERS\TASE\DESKTOP\OPENRUN\DEPENDENTE\GLM\CORE\TYPE_MAT2X3.HPP
C:\USERS\TASE\DESKTOP\OPENRUN\DEPENDENTE\GLM\CORE\TYPE_MAT2X3.INL
C:\USERS\TASE\DESKTOP\OPENRUN\DEPENDENTE\GLM\CORE\TYPE_MAT2X4.HPP
C:\USERS\TASE\DESKTOP\OPENRUN\DEPENDENTE\GLM\CORE\TYPE_MAT2X4.INL
C:\USERS\TASE\DESKTOP\OPENRUN\DEPENDENTE\GLM\CORE\TYPE_MAT3X2.HPP
C:\USERS\TASE\DESKTOP\OPENRUN\DEPENDENTE\GLM\CORE\TYPE_MAT3X2.INL
C:\USERS\TASE\DESKTOP\OPENRUN\DEPENDENTE\GLM\CORE\TYPE_MAT3X3.HPP
C:\USERS\TASE\DESKTOP\OPENRUN\DEPENDENTE\GLM\CORE\TYPE_MAT3X3.INL
C:\USERS\TASE\DESKTOP\OPENRUN\DEPENDENTE\GLM\CORE\TYPE_MAT3X4.HPP
C:\USERS\TASE\DESKTOP\OPENRUN\DEPENDENTE\GLM\CORE\TYPE_MAT3X4.INL
C:\USERS\TASE\DESKTOP\OPENRUN\DEPENDENTE\GLM\CORE\TYPE_MAT4X2.HPP
C:\USERS\TASE\DESKTOP\OPENRUN\DEPENDENTE\GLM\CORE\TYPE_MAT4X2.INL
C:\USERS\TASE\DESKTOP\OPENRUN\DEPENDENTE\GLM\CORE\TYPE_MAT4X3.HPP
C:\USERS\TASE\DESKTOP\OPENRUN\DEPENDENTE\GLM\CORE\TYPE_MAT4X3.INL
C:\USERS\TASE\DESKTOP\OPENRUN\DEPENDENTE\GLM\CORE\TYPE_MAT4X4.HPP
C:\USERS\TASE\DESKTOP\OPENRUN\DEPENDENTE\GLM\CORE\TYPE_MAT4X4.INL
C:\USERS\TASE\DESKTOP\OPENRUN\DEPENDENTE\GLM\CORE\FUNC_TRIGONOMETRIC.HPP
C:\USERS\TASE\DESKTOP\OPENRUN\DEPENDENTE\GLM\CORE\FUNC_TRIGONOMETRIC.INL
C:\USERS\TASE\DESKTOP\OPENRUN\DEPENDENTE\GLM\CORE\FUNC_EXPONENTIAL.HPP
C:\USERS\TASE\DESKTOP\OPENRUN\DEPENDENTE\GLM\CORE\FUNC_EXPONENTIAL.INL
C:\USERS\TASE\DESKTOP\OPENRUN\DEPENDENTE\GLM\CORE\FUNC_COMMON.HPP
C:\USERS\TASE\DESKTOP\OPENRUN\DEPENDENTE\GLM\CORE\FUNC_COMMON.INL
C:\USERS\TASE\DESKTOP\OPENRUN\DEPENDENTE\GLM\CORE\FUNC_PACKING.HPP
C:\USERS\TASE\DESKTOP\OPENRUN\DEPENDENTE\GLM\CORE\FUNC_PACKING.INL
C:\USERS\TASE\DESKTOP\OPENRUN\DEPENDENTE\GLM\CORE\FUNC_GEOMETRIC.HPP
C:\USERS\TASE\DESKTOP\OPENRUN\DEPENDENTE\GLM\CORE\FUNC_GEOMETRIC.INL
C:\USERS\TASE\DESKTOP\OPENRUN\DEPENDENTE\GLM\CORE\FUNC_MATRIX.HPP
C:\USERS\TASE\DESKTOP\OPENRUN\DEPENDENTE\GLM\CORE\FUNC_MATRIX.INL
C:\USERS\TASE\DESKTOP\OPENRUN\DEPENDENTE\GLM\CORE\FUNC_VECTOR_RELATIONAL.HPP
C:\USERS\TASE\DESKTOP\OPENRUN\DEPENDENTE\GLM\CORE\FUNC_VECTOR_RELATIONAL.INL
C:\USERS\TASE\DESKTOP\OPENRUN\DEPENDENTE\GLM\CORE\FUNC_INTEGER.HPP
C:\USERS\TASE\DESKTOP\OPENRUN\DEPENDENTE\GLM\CORE\FUNC_INTEGER.INL
C:\PROGRAM FILES (X86)\MICROSOFT VISUAL STUDIO 12.0\VC\INCLUDE\INTRIN.H
C:\PROGRAM FILES (X86)\MICROSOFT VISUAL STUDIO 12.0\VC\INCLUDE\SETJMP.H
C:\PROGRAM FILES (X86)\MICROSOFT VISUAL STUDIO 12.0\VC\INCLUDE\IMMINTRIN.H
C:\PROGRAM FILES (X86)\MICROSOFT VISUAL STUDIO 12.0\VC\INCLUDE\WMMINTRIN.H
C:\PROGRAM FILES (X86)\MICROSOFT VISUAL STUDIO 12.0\VC\INCLUDE\NMMINTRIN.H
C:\PROGRAM FILES (X86)\MICROSOFT VISUAL STUDIO 12.0\VC\INCLUDE\SMMINTRIN.H
C:\PROGRAM FILES (X86)\MICROSOFT VISUAL STUDIO 12.0\VC\INCLUDE\TMMINTRIN.H
C:\PROGRAM FILES (X86)\MICROSOFT VISUAL STUDIO 12.0\VC\INCLUDE\PMMINTRIN.H
C:\PROGRAM FILES (X86)\MICROSOFT VISUAL STUDIO 12.0\VC\INCLUDE\EMMINTRIN.H
C:\PROGRAM FILES (X86)\MICROSOFT VISUAL STUDIO 12.0\VC\INCLUDE\XMMINTRIN.H
C:\PROGRAM FILES (X86)\MICROSOFT VISUAL STUDIO 12.0\VC\INCLUDE\MMINTRIN.H
C:\PROGRAM FILES (X86)\MICROSOFT VISUAL STUDIO 12.0\VC\INCLUDE\MALLOC.H
C:\PROGRAM FILES (X86)\MICROSOFT VISUAL STUDIO 12.0\VC\INCLUDE\AMMINTRIN.H
C:\PROGRAM FILES (X86)\MICROSOFT VISUAL STUDIO 12.0\VC\INCLUDE\MM3DNOW.H
C:\USERS\TASE\DESKTOP\OPENRUN\DEPENDENTE\GLM\CORE\FUNC_NOISE.HPP
C:\USERS\TASE\DESKTOP\OPENRUN\DEPENDENTE\GLM\CORE\FUNC_NOISE.INL
C:\USERS\TASE\DESKTOP\OPENRUN\DEPENDENTE\GLM\GTC\TYPE_PTR.HPP
C:\USERS\TASE\DESKTOP\OPENRUN\DEPENDENTE\GLM\GTC\HALF_FLOAT.HPP
C:\USERS\TASE\DESKTOP\OPENRUN\DEPENDENTE\GLM\GTC\HALF_FLOAT.INL
C:\USERS\TASE\DESKTOP\OPENRUN\DEPENDENTE\GLM\GTC\QUATERNION.HPP
C:\USERS\TASE\DESKTOP\OPENRUN\DEPENDENTE\GLM\GTC\CONSTANTS.HPP
C:\USERS\TASE\DESKTOP\OPENRUN\DEPENDENTE\GLM\GTC\CONSTANTS.INL
C:\USERS\TASE\DESKTOP\OPENRUN\DEPENDENTE\GLM\GTC\QUATERNION.INL
C:\PROGRAM FILES (X86)\MICROSOFT VISUAL STUDIO 12.0\VC\INCLUDE\CSTRING
C:\PROGRAM FILES (X86)\MICROSOFT VISUAL STUDIO 12.0\VC\INCLUDE\STRING.H
C:\USERS\TASE\DESKTOP\OPENRUN\DEPENDENTE\GLM\GTC\TYPE_PTR.INL
C:\USERS\TASE\DESKTOP\OPENRUN\DEPENDENTE\GLM\GTC\MATRIX_TRANSFORM.HPP
C:\USERS\TASE\DESKTOP\OPENRUN\DEPENDENTE\GLM\GTC\MATRIX_TRANSFORM.INL
C:\USERS\TASE\DESKTOP\OPENRUN\LAB_CAMERA.HPP
C:\PROGRAM FILES (X86)\MICROSOFT VISUAL STUDIO 12.0\VC\INCLUDE\VECTOR
C:\PROGRAM FILES (X86)\MICROSOFT VISUAL STUDIO 12.0\VC\INCLUDE\XMEMORY
C:\PROGRAM FILES (X86)\MICROSOFT VISUAL STUDIO 12.0\VC\INCLUDE\XMEMORY0
C:\PROGRAM FILES (X86)\MICROSOFT VISUAL STUDIO 12.0\VC\INCLUDE\NEW
C:\PROGRAM FILES (X86)\MICROSOFT VISUAL STUDIO 12.0\VC\INCLUDE\EXCEPTION
C:\PROGRAM FILES (X86)\MICROSOFT VISUAL STUDIO 12.0\VC\INCLUDE\EH.H
C:\PROGRAM FILES (X86)\MICROSOFT VISUAL STUDIO 12.0\VC\INCLUDE\XUTILITY
C:\PROGRAM FILES (X86)\MICROSOFT VISUAL STUDIO 12.0\VC\INCLUDE\UTILITY
C:\PROGRAM FILES (X86)\MICROSOFT VISUAL STUDIO 12.0\VC\INCLUDE\IOSFWD
C:\PROGRAM FILES (X86)\MICROSOFT VISUAL STUDIO 12.0\VC\INCLUDE\CRTDBG.H
C:\PROGRAM FILES (X86)\MICROSOFT VISUAL STUDIO 12.0\VC\INCLUDE\TYPE_TRAITS
C:\PROGRAM FILES (X86)\MICROSOFT VISUAL STUDIO 12.0\VC\INCLUDE\XREFWRAP
C:\PROGRAM FILES (X86)\MICROSOFT VISUAL STUDIO 12.0\VC\INCLUDE\XATOMIC0.H
C:\PROGRAM FILES (X86)\MICROSOFT VISUAL STUDIO 12.0\VC\INCLUDE\STDEXCEPT
C:\PROGRAM FILES (X86)\MICROSOFT VISUAL STUDIO 12.0\VC\INCLUDE\XSTRING
C:\USERS\TASE\DESKTOP\OPENRUN\SOURCES\DEFINES.H
C:\USERS\TASE\DESKTOP\OPENRUN\SOURCES\CUBE.H
^C:\USERS\TASE\DESKTOP\OPENRUN\MAIN.CPP
C:\PROGRAM FILES (X86)\MICROSOFT VISUAL STUDIO 12.0\VC\INCLUDE\FSTREAM
C:\PROGRAM FILES (X86)\MICROSOFT VISUAL STUDIO 12.0\VC\INCLUDE\ISTREAM
C:\PROGRAM FILES (X86)\MICROSOFT VISUAL STUDIO 12.0\VC\INCLUDE\OSTREAM
C:\PROGRAM FILES (X86)\MICROSOFT VISUAL STUDIO 12.0\VC\INCLUDE\IOS
C:\PROGRAM FILES (X86)\MICROSOFT VISUAL STUDIO 12.0\VC\INCLUDE\XLOCNUM
C:\PROGRAM FILES (X86)\MICROSOFT VISUAL STUDIO 12.0\VC\INCLUDE\CLIMITS
C:\PROGRAM FILES (X86)\MICROSOFT VISUAL STUDIO 12.0\VC\INCLUDE\YVALS.H
C:\PROGRAM FILES (X86)\MICROSOFT VISUAL STUDIO 12.0\VC\INCLUDE\XKEYCHECK.H
C:\PROGRAM FILES (X86)\MICROSOFT VISUAL STUDIO 12.0\VC\INCLUDE\CRTDEFS.H
C:\PROGRAM FILES (X86)\MICROSOFT VISUAL STUDIO 12.0\VC\INCLUDE\SAL.H
C:\PROGRAM FILES (X86)\MICROSOFT VISUAL STUDIO 12.0\VC\INCLUDE\CONCURRENCYSAL.H
C:\PROGRAM FILES (X86)\MICROSOFT VISUAL STUDIO 12.0\VC\INCLUDE\VADEFS.H
C:\PROGRAM FILES (X86)\MICROSOFT VISUAL STUDIO 12.0\VC\INCLUDE\USE_ANSI.H
C:\PROGRAM FILES (X86)\MICROSOFT VISUAL STUDIO 12.0\VC\INCLUDE\LIMITS.H
C:\PROGRAM FILES (X86)\MICROSOFT VISUAL STUDIO 12.0\VC\INCLUDE\CMATH
C:\PROGRAM FILES (X86)\MICROSOFT VISUAL STUDIO 12.0\VC\INCLUDE\MATH.H
C:\PROGRAM FILES (X86)\MICROSOFT VISUAL STUDIO 12.0\VC\INCLUDE\XTGMATH.H
C:\PROGRAM FILES (X86)\MICROSOFT VISUAL STUDIO 12.0\VC\INCLUDE\XTR1COMMON
C:\PROGRAM FILES (X86)\MICROSOFT VISUAL STUDIO 12.0\VC\INCLUDE\CSTDIO
C:\PROGRAM FILES (X86)\MICROSOFT VISUAL STUDIO 12.0\VC\INCLUDE\STDIO.H
C:\PROGRAM FILES (X86)\MICROSOFT VISUAL STUDIO 12.0\VC\INCLUDE\SWPRINTF.INL
C:\PROGRAM FILES (X86)\MICROSOFT VISUAL STUDIO 12.0\VC\INCLUDE\CSTDLIB
C:\PROGRAM FILES (X86)\MICROSOFT VISUAL STUDIO 12.0\VC\INCLUDE\STDLIB.H
C:\PROGRAM FILES (X86)\MICROSOFT VISUAL STUDIO 12.0\VC\INCLUDE\STREAMBUF
C:\PROGRAM FILES (X86)\MICROSOFT VISUAL STUDIO 12.0\VC\INCLUDE\XIOSBASE
C:\PROGRAM FILES (X86)\MICROSOFT VISUAL STUDIO 12.0\VC\INCLUDE\XLOCALE
C:\PROGRAM FILES (X86)\MICROSOFT VISUAL STUDIO 12.0\VC\INCLUDE\CSTRING
C:\PROGRAM FILES (X86)\MICROSOFT VISUAL STUDIO 12.0\VC\INCLUDE\STRING.H
C:\PROGRAM FILES (X86)\MICROSOFT VISUAL STUDIO 12.0\VC\INCLUDE\STDEXCEPT
C:\PROGRAM FILES (X86)\MICROSOFT VISUAL STUDIO 12.0\VC\INCLUDE\EXCEPTION
C:\PROGRAM FILES (X86)\MICROSOFT VISUAL STUDIO 12.0\VC\INCLUDE\XSTDDEF
C:\PROGRAM FILES (X86)\MICROSOFT VISUAL STUDIO 12.0\VC\INCLUDE\CSTDDEF
C:\PROGRAM FILES (X86)\MICROSOFT VISUAL STUDIO 12.0\VC\INCLUDE\STDDEF.H
C:\PROGRAM FILES (X86)\MICROSOFT VISUAL STUDIO 12.0\VC\INCLUDE\INITIALIZER_LIST
C:\PROGRAM FILES (X86)\MICROSOFT VISUAL STUDIO 12.0\VC\INCLUDE\EH.H
C:\PROGRAM FILES (X86)\MICROSOFT VISUAL STUDIO 12.0\VC\INCLUDE\MALLOC.H
C:\PROGRAM FILES (X86)\MICROSOFT VISUAL STUDIO 12.0\VC\INCLUDE\XSTRING
C:\PROGRAM FILES (X86)\MICROSOFT VISUAL STUDIO 12.0\VC\INCLUDE\XMEMORY0
C:\PROGRAM FILES (X86)\MICROSOFT VISUAL STUDIO 12.0\VC\INCLUDE\LIMITS
C:\PROGRAM FILES (X86)\MICROSOFT VISUAL STUDIO 12.0\VC\INCLUDE\YMATH.H
C:\PROGRAM FILES (X86)\MICROSOFT VISUAL STUDIO 12.0\VC\INCLUDE\CFLOAT
C:\PROGRAM FILES (X86)\MICROSOFT VISUAL STUDIO 12.0\VC\INCLUDE\FLOAT.H
C:\PROGRAM FILES (X86)\MICROSOFT VISUAL STUDIO 12.0\VC\INCLUDE\CRTWRN.H
C:\PROGRAM FILES (X86)\MICROSOFT VISUAL STUDIO 12.0\VC\INCLUDE\CWCHAR
C:\PROGRAM FILES (X86)\MICROSOFT VISUAL STUDIO 12.0\VC\INCLUDE\WCHAR.H
C:\PROGRAM FILES (X86)\MICROSOFT VISUAL STUDIO 12.0\VC\INCLUDE\WTIME.INL
C:\PROGRAM FILES (X86)\MICROSOFT VISUAL STUDIO 12.0\VC\INCLUDE\NEW
C:\PROGRAM FILES (X86)\MICROSOFT VISUAL STUDIO 12.0\VC\INCLUDE\XUTILITY
C:\PROGRAM FILES (X86)\MICROSOFT VISUAL STUDIO 12.0\VC\INCLUDE\UTILITY
C:\PROGRAM FILES (X86)\MICROSOFT VISUAL STUDIO 12.0\VC\INCLUDE\IOSFWD
C:\PROGRAM FILES (X86)\MICROSOFT VISUAL STUDIO 12.0\VC\INCLUDE\CRTDBG.H
C:\PROGRAM FILES (X86)\MICROSOFT VISUAL STUDIO 12.0\VC\INCLUDE\TYPE_TRAITS
C:\PROGRAM FILES (X86)\MICROSOFT VISUAL STUDIO 12.0\VC\INCLUDE\XREFWRAP
C:\PROGRAM FILES (X86)\MICROSOFT VISUAL STUDIO 12.0\VC\INCLUDE\XATOMIC0.H
C:\PROGRAM FILES (X86)\MICROSOFT VISUAL STUDIO 12.0\VC\INCLUDE\INTRIN.H
C:\PROGRAM FILES (X86)\MICROSOFT VISUAL STUDIO 12.0\VC\INCLUDE\SETJMP.H
C:\PROGRAM FILES (X86)\MICROSOFT VISUAL STUDIO 12.0\VC\INCLUDE\IMMINTRIN.H
C:\PROGRAM FILES (X86)\MICROSOFT VISUAL STUDIO 12.0\VC\INCLUDE\WMMINTRIN.H
C:\PROGRAM FILES (X86)\MICROSOFT VISUAL STUDIO 12.0\VC\INCLUDE\NMMINTRIN.H
C:\PROGRAM FILES (X86)\MICROSOFT VISUAL STUDIO 12.0\VC\INCLUDE\SMMINTRIN.H
C:\PROGRAM FILES (X86)\MICROSOFT VISUAL STUDIO 12.0\VC\INCLUDE\TMMINTRIN.H
C:\PROGRAM FILES (X86)\MICROSOFT VISUAL STUDIO 12.0\VC\INCLUDE\PMMINTRIN.H
C:\PROGRAM FILES (X86)\MICROSOFT VISUAL STUDIO 12.0\VC\INCLUDE\EMMINTRIN.H
C:\PROGRAM FILES (X86)\MICROSOFT VISUAL STUDIO 12.0\VC\INCLUDE\XMMINTRIN.H
C:\PROGRAM FILES (X86)\MICROSOFT VISUAL STUDIO 12.0\VC\INCLUDE\MMINTRIN.H
C:\PROGRAM FILES (X86)\MICROSOFT VISUAL STUDIO 12.0\VC\INCLUDE\AMMINTRIN.H
C:\PROGRAM FILES (X86)\MICROSOFT VISUAL STUDIO 12.0\VC\INCLUDE\MM3DNOW.H
C:\PROGRAM FILES (X86)\MICROSOFT VISUAL STUDIO 12.0\VC\INCLUDE\TYPEINFO
C:\PROGRAM FILES (X86)\MICROSOFT VISUAL STUDIO 12.0\VC\INCLUDE\XLOCINFO
C:\PROGRAM FILES (X86)\MICROSOFT VISUAL STUDIO 12.0\VC\INCLUDE\XLOCINFO.H
C:\PROGRAM FILES (X86)\MICROSOFT VISUAL STUDIO 12.0\VC\INCLUDE\CTYPE.H
C:\PROGRAM FILES (X86)\MICROSOFT VISUAL STUDIO 12.0\VC\INCLUDE\LOCALE.H
C:\PROGRAM FILES (X86)\MICROSOFT VISUAL STUDIO 12.0\VC\INCLUDE\XDEBUG
C:\PROGRAM FILES (X86)\MICROSOFT VISUAL STUDIO 12.0\VC\INCLUDE\XFACET
C:\PROGRAM FILES (X86)\MICROSOFT VISUAL STUDIO 12.0\VC\INCLUDE\SYSTEM_ERROR
C:\PROGRAM FILES (X86)\MICROSOFT VISUAL STUDIO 12.0\VC\INCLUDE\CERRNO
C:\PROGRAM FILES (X86)\MICROSOFT VISUAL STUDIO 12.0\VC\INCLUDE\ERRNO.H
C:\PROGRAM FILES (X86)\MICROSOFT VISUAL STUDIO 12.0\VC\INCLUDE\SHARE.H
C:\USERS\TASE\DESKTOP\OPENRUN\SOURCES\HEADERS.H
C:\USERS\TASE\DESKTOP\OPENRUN\LAB_MESH_LOADER.HPP
C:\USERS\TASE\DESKTOP\OPENRUN\DEPENDENTE\GLEW\GLEW.H
C:\PROGRAM FILES (X86)\WINDOWS KITS\8.1\INCLUDE\UM\GL\GLU.H
C:\PROGRAM FILES (X86)\WINDOWS KITS\8.1\INCLUDE\SHARED\WINAPIFAMILY.H
C:\PROGRAM FILES (X86)\WINDOWS KITS\8.1\INCLUDE\UM\GL\GL.H
C:\USERS\TASE\DESKTOP\OPENRUN\DEPENDENTE\GLM\GLM.HPP
C:\USERS\TASE\DESKTOP\OPENRUN\DEPENDENTE\GLM\CORE\_FIXES.HPP
C:\USERS\TASE\DESKTOP\OPENRUN\DEPENDENTE\GLM\CORE\SETUP.HPP
C:\USERS\TASE\DESKTOP\OPENRUN\DEPENDENTE\GLM\CORE\_DETAIL.HPP
C:\PROGRAM FILES (X86)\MICROSOFT VISUAL STUDIO 12.0\VC\INCLUDE\CASSERT
C:\PROGRAM FILES (X86)\MICROSOFT VISUAL STUDIO 12.0\VC\INCLUDE\ASSERT.H
C:\USERS\TASE\DESKTOP\OPENRUN\DEPENDENTE\GLM\CORE\_VECTORIZE.HPP
C:\USERS\TASE\DESKTOP\OPENRUN\DEPENDENTE\GLM\CORE\TYPE.HPP
C:\USERS\TASE\DESKTOP\OPENRUN\DEPENDENTE\GLM\CORE\TYPE_HALF.HPP
C:\USERS\TASE\DESKTOP\OPENRUN\DEPENDENTE\GLM\CORE\TYPE_HALF.INL
C:\USERS\TASE\DESKTOP\OPENRUN\DEPENDENTE\GLM\CORE\TYPE_FLOAT.HPP
C:\USERS\TASE\DESKTOP\OPENRUN\DEPENDENTE\GLM\CORE\TYPE_INT.HPP
C:\USERS\TASE\DESKTOP\OPENRUN\DEPENDENTE\GLM\CORE\TYPE_GENTYPE.HPP
C:\USERS\TASE\DESKTOP\OPENRUN\DEPENDENTE\GLM\CORE\TYPE_SIZE.HPP
C:\USERS\TASE\DESKTOP\OPENRUN\DEPENDENTE\GLM\CORE\TYPE_VEC1.HPP
C:\USERS\TASE\DESKTOP\OPENRUN\DEPENDENTE\GLM\CORE\TYPE_VEC.HPP
C:\USERS\TASE\DESKTOP\OPENRUN\DEPENDENTE\GLM\CORE\_SWIZZLE.HPP
C:\USERS\TASE\DESKTOP\OPENRUN\DEPENDENTE\GLM\CORE\_SWIZZLE_FUNC.HPP
C:\USERS\TASE\DESKTOP\OPENRUN\DEPENDENTE\GLM\CORE\TYPE_VEC1.INL
C:\USERS\TASE\DESKTOP\OPENRUN\DEPENDENTE\GLM\CORE\TYPE_VEC2.HPP
C:\USERS\TASE\DESKTOP\OPENRUN\DEPENDENTE\GLM\CORE\TYPE_VEC2.INL
C:\USERS\TASE\DESKTOP\OPENRUN\DEPENDENTE\GLM\CORE\TYPE_VEC3.HPP
C:\USERS\TASE\DESKTOP\OPENRUN\DEPENDENTE\GLM\CORE\TYPE_VEC3.INL
C:\USERS\TASE\DESKTOP\OPENRUN\DEPENDENTE\GLM\CORE\TYPE_VEC4.HPP
C:\USERS\TASE\DESKTOP\OPENRUN\DEPENDENTE\GLM\CORE\TYPE_VEC4.INL
C:\USERS\TASE\DESKTOP\OPENRUN\DEPENDENTE\GLM\CORE\TYPE_MAT2X2.HPP
C:\USERS\TASE\DESKTOP\OPENRUN\DEPENDENTE\GLM\CORE\TYPE_MAT.HPP
C:\USERS\TASE\DESKTOP\OPENRUN\DEPENDENTE\GLM\CORE\TYPE_MAT2X2.INL
C:\USERS\TASE\DESKTOP\OPENRUN\DEPENDENTE\GLM\CORE\TYPE_MAT2X3.HPP
C:\USERS\TASE\DESKTOP\OPENRUN\DEPENDENTE\GLM\CORE\TYPE_MAT2X3.INL
C:\USERS\TASE\DESKTOP\OPENRUN\DEPENDENTE\GLM\CORE\TYPE_MAT2X4.HPP
C:\USERS\TASE\DESKTOP\OPENRUN\DEPENDENTE\GLM\CORE\TYPE_MAT2X4.INL
C:\USERS\TASE\DESKTOP\OPENRUN\DEPENDENTE\GLM\CORE\TYPE_MAT3X2.HPP
C:\USERS\TASE\DESKTOP\OPENRUN\DEPENDENTE\GLM\CORE\TYPE_MAT3X2.INL
C:\USERS\TASE\DESKTOP\OPENRUN\DEPENDENTE\GLM\CORE\TYPE_MAT3X3.HPP
C:\USERS\TASE\DESKTOP\OPENRUN\DEPENDENTE\GLM\CORE\TYPE_MAT3X3.INL
C:\USERS\TASE\DESKTOP\OPENRUN\DEPENDENTE\GLM\CORE\TYPE_MAT3X4.HPP
C:\USERS\TASE\DESKTOP\OPENRUN\DEPENDENTE\GLM\CORE\TYPE_MAT3X4.INL
C:\USERS\TASE\DESKTOP\OPENRUN\DEPENDENTE\GLM\CORE\TYPE_MAT4X2.HPP
C:\USERS\TASE\DESKTOP\OPENRUN\DEPENDENTE\GLM\CORE\TYPE_MAT4X2.INL
C:\USERS\TASE\DESKTOP\OPENRUN\DEPENDENTE\GLM\CORE\TYPE_MAT4X3.HPP
C:\USERS\TASE\DESKTOP\OPENRUN\DEPENDENTE\GLM\CORE\TYPE_MAT4X3.INL
C:\USERS\TASE\DESKTOP\OPENRUN\DEPENDENTE\GLM\CORE\TYPE_MAT4X4.HPP
C:\USERS\TASE\DESKTOP\OPENRUN\DEPENDENTE\GLM\CORE\TYPE_MAT4X4.INL
C:\USERS\TASE\DESKTOP\OPENRUN\DEPENDENTE\GLM\CORE\FUNC_TRIGONOMETRIC.HPP
C:\USERS\TASE\DESKTOP\OPENRUN\DEPENDENTE\GLM\CORE\FUNC_TRIGONOMETRIC.INL
C:\USERS\TASE\DESKTOP\OPENRUN\DEPENDENTE\GLM\CORE\FUNC_EXPONENTIAL.HPP
C:\USERS\TASE\DESKTOP\OPENRUN\DEPENDENTE\GLM\CORE\FUNC_EXPONENTIAL.INL
C:\USERS\TASE\DESKTOP\OPENRUN\DEPENDENTE\GLM\CORE\FUNC_COMMON.HPP
C:\USERS\TASE\DESKTOP\OPENRUN\DEPENDENTE\GLM\CORE\FUNC_COMMON.INL
C:\USERS\TASE\DESKTOP\OPENRUN\DEPENDENTE\GLM\CORE\FUNC_PACKING.HPP
C:\USERS\TASE\DESKTOP\OPENRUN\DEPENDENTE\GLM\CORE\FUNC_PACKING.INL
C:\USERS\TASE\DESKTOP\OPENRUN\DEPENDENTE\GLM\CORE\FUNC_GEOMETRIC.HPP
C:\USERS\TASE\DESKTOP\OPENRUN\DEPENDENTE\GLM\CORE\FUNC_GEOMETRIC.INL
C:\USERS\TASE\DESKTOP\OPENRUN\DEPENDENTE\GLM\CORE\FUNC_MATRIX.HPP
C:\USERS\TASE\DESKTOP\OPENRUN\DEPENDENTE\GLM\CORE\FUNC_MATRIX.INL
C:\USERS\TASE\DESKTOP\OPENRUN\DEPENDENTE\GLM\CORE\FUNC_VECTOR_RELATIONAL.HPP
C:\USERS\TASE\DESKTOP\OPENRUN\DEPENDENTE\GLM\CORE\FUNC_VECTOR_RELATIONAL.INL
C:\USERS\TASE\DESKTOP\OPENRUN\DEPENDENTE\GLM\CORE\FUNC_INTEGER.HPP
C:\USERS\TASE\DESKTOP\OPENRUN\DEPENDENTE\GLM\CORE\FUNC_INTEGER.INL
C:\USERS\TASE\DESKTOP\OPENRUN\DEPENDENTE\GLM\CORE\FUNC_NOISE.HPP
C:\USERS\TASE\DESKTOP\OPENRUN\DEPENDENTE\GLM\CORE\FUNC_NOISE.INL
C:\USERS\TASE\DESKTOP\OPENRUN\DEPENDENTE\GLM\GTC\TYPE_PTR.HPP
C:\USERS\TASE\DESKTOP\OPENRUN\DEPENDENTE\GLM\GTC\HALF_FLOAT.HPP
C:\USERS\TASE\DESKTOP\OPENRUN\DEPENDENTE\GLM\GTC\HALF_FLOAT.INL
C:\USERS\TASE\DESKTOP\OPENRUN\DEPENDENTE\GLM\GTC\QUATERNION.HPP
C:\USERS\TASE\DESKTOP\OPENRUN\DEPENDENTE\GLM\GTC\CONSTANTS.HPP
C:\USERS\TASE\DESKTOP\OPENRUN\DEPENDENTE\GLM\GTC\CONSTANTS.INL
C:\USERS\TASE\DESKTOP\OPENRUN\DEPENDENTE\GLM\GTC\QUATERNION.INL
C:\USERS\TASE\DESKTOP\OPENRUN\DEPENDENTE\GLM\GTC\TYPE_PTR.INL
C:\USERS\TASE\DESKTOP\OPENRUN\DEPENDENTE\GLM\GTC\MATRIX_TRANSFORM.HPP
C:\USERS\TASE\DESKTOP\OPENRUN\DEPENDENTE\GLM\GTC\MATRIX_TRANSFORM.INL
C:\PROGRAM FILES (X86)\MICROSOFT VISUAL STUDIO 12.0\VC\INCLUDE\IOSTREAM
C:\PROGRAM FILES (X86)\MICROSOFT VISUAL STUDIO 12.0\VC\INCLUDE\STRING
C:\PROGRAM FILES (X86)\MICROSOFT VISUAL STUDIO 12.0\VC\INCLUDE\ITERATOR
C:\PROGRAM FILES (X86)\MICROSOFT VISUAL STUDIO 12.0\VC\INCLUDE\VECTOR
C:\PROGRAM FILES (X86)\MICROSOFT VISUAL STUDIO 12.0\VC\INCLUDE\XMEMORY
C:\PROGRAM FILES (X86)\MICROSOFT VISUAL STUDIO 12.0\VC\INCLUDE\SSTREAM
C:\USERS\TASE\DESKTOP\OPENRUN\SOURCES\DEFINES.H
C:\USERS\TASE\DESKTOP\OPENRUN\LAB_GEOMETRY.HPP
C:\USERS\TASE\DESKTOP\OPENRUN\DEPENDENTE\FREEGLUT\FREEGLUT.H
C:\USERS\TASE\DESKTOP\OPENRUN\DEPENDENTE\FREEGLUT\FREEGLUT_STD.H
C:\PROGRAM FILES (X86)\WINDOWS KITS\8.1\INCLUDE\UM\WINDOWS.H
C:\PROGRAM FILES (X86)\WINDOWS KITS\8.1\INCLUDE\SHARED\SDKDDKVER.H
C:\PROGRAM FILES (X86)\MICROSOFT VISUAL STUDIO 12.0\VC\INCLUDE\EXCPT.H
C:\PROGRAM FILES (X86)\MICROSOFT VISUAL STUDIO 12.0\VC\INCLUDE\STDARG.H
C:\PROGRAM FILES (X86)\WINDOWS KITS\8.1\INCLUDE\SHARED\WINDEF.H
C:\PROGRAM FILES (X86)\WINDOWS KITS\8.1\INCLUDE\SHARED\MINWINDEF.H
C:\PROGRAM FILES (X86)\WINDOWS KITS\8.1\INCLUDE\SHARED\SPECSTRINGS.H
C:\PROGRAM FILES (X86)\WINDOWS KITS\8.1\INCLUDE\SHARED\SPECSTRINGS_STRICT.H
C:\PROGRAM FILES (X86)\WINDOWS KITS\8.1\INCLUDE\SHARED\SPECSTRINGS_UNDEF.H
C:\PROGRAM FILES (X86)\WINDOWS KITS\8.1\INCLUDE\SHARED\DRIVERSPECS.H
C:\PROGRAM FILES (X86)\WINDOWS KITS\8.1\INCLUDE\SHARED\SDV_DRIVERSPECS.H
C:\PROGRAM FILES (X86)\WINDOWS KITS\8.1\INCLUDE\UM\WINNT.H
C:\PROGRAM FILES (X86)\WINDOWS KITS\8.1\INCLUDE\SHARED\KERNELSPECS.H
C:\PROGRAM FILES (X86)\WINDOWS KITS\8.1\INCLUDE\SHARED\BASETSD.H
C:\PROGRAM FILES (X86)\WINDOWS KITS\8.1\INCLUDE\SHARED\GUIDDEF.H
C:\PROGRAM FILES (X86)\WINDOWS KITS\8.1\INCLUDE\SHARED\PSHPACK4.H
C:\PROGRAM FILES (X86)\WINDOWS KITS\8.1\INCLUDE\SHARED\POPPACK.H
C:\PROGRAM FILES (X86)\WINDOWS KITS\8.1\INCLUDE\SHARED\PSHPACK2.H
C:\PROGRAM FILES (X86)\WINDOWS KITS\8.1\INCLUDE\SHARED\PSHPACK8.H
C:\PROGRAM FILES (X86)\WINDOWS KITS\8.1\INCLUDE\SHARED\APISET.H
C:\PROGRAM FILES (X86)\WINDOWS KITS\8.1\INCLUDE\SHARED\KTMTYPES.H
C:\PROGRAM FILES (X86)\WINDOWS KITS\8.1\INCLUDE\UM\WINBASE.H
C:\PROGRAM FILES (X86)\WINDOWS KITS\8.1\INCLUDE\SHARED\APISETCCONV.H
C:\PROGRAM FILES (X86)\WINDOWS KITS\8.1\INCLUDE\UM\MINWINBASE.H
C:\PROGRAM FILES (X86)\WINDOWS KITS\8.1\INCLUDE\UM\PROCESSENV.H
C:\PROGRAM FILES (X86)\WINDOWS KITS\8.1\INCLUDE\UM\FILEAPI.H
C:\PROGRAM FILES (X86)\WINDOWS KITS\8.1\INCLUDE\UM\DEBUGAPI.H
C:\PROGRAM FILES (X86)\WINDOWS KITS\8.1\INCLUDE\UM\UTILAPISET.H
C:\PROGRAM FILES (X86)\WINDOWS KITS\8.1\INCLUDE\UM\HANDLEAPI.H
C:\PROGRAM FILES (X86)\WINDOWS KITS\8.1\INCLUDE\UM\ERRHANDLINGAPI.H
C:\PROGRAM FILES (X86)\WINDOWS KITS\8.1\INCLUDE\UM\FIBERSAPI.H
C:\PROGRAM FILES (X86)\WINDOWS KITS\8.1\INCLUDE\UM\NAMEDPIPEAPI.H
C:\PROGRAM FILES (X86)\WINDOWS KITS\8.1\INCLUDE\UM\PROFILEAPI.H
C:\PROGRAM FILES (X86)\WINDOWS KITS\8.1\INCLUDE\UM\HEAPAPI.H
C:\PROGRAM FILES (X86)\WINDOWS KITS\8.1\INCLUDE\UM\IOAPISET.H
C:\PROGRAM FILES (X86)\WINDOWS KITS\8.1\INCLUDE\UM\SYNCHAPI.H
C:\PROGRAM FILES (X86)\WINDOWS KITS\8.1\INCLUDE\UM\INTERLOCKEDAPI.H
C:\PROGRAM FILES (X86)\WINDOWS KITS\8.1\INCLUDE\UM\PROCESSTHREADSAPI.H
C:\PROGRAM FILES (X86)\WINDOWS KITS\8.1\INCLUDE\UM\SYSINFOAPI.H
C:\PROGRAM FILES (X86)\WINDOWS KITS\8.1\INCLUDE\UM\MEMORYAPI.H
C:\PROGRAM FILES (X86)\WINDOWS KITS\8.1\INCLUDE\UM\THREADPOOLLEGACYAPISET.H
C:\PROGRAM FILES (X86)\WINDOWS KITS\8.1\INCLUDE\UM\THREADPOOLAPISET.H
C:\PROGRAM FILES (X86)\WINDOWS KITS\8.1\INCLUDE\UM\BEMAPISET.H
C:\PROGRAM FILES (X86)\WINDOWS KITS\8.1\INCLUDE\UM\JOBAPI.H
C:\PROGRAM FILES (X86)\WINDOWS KITS\8.1\INCLUDE\UM\WOW64APISET.H
C:\PROGRAM FILES (X86)\WINDOWS KITS\8.1\INCLUDE\UM\LIBLOADERAPI.H
C:\PROGRAM FILES (X86)\WINDOWS KITS\8.1\INCLUDE\UM\SECURITYBASEAPI.H
C:\PROGRAM FILES (X86)\WINDOWS KITS\8.1\INCLUDE\UM\NAMESPACEAPI.H
C:\PROGRAM FILES (X86)\WINDOWS KITS\8.1\INCLUDE\UM\SYSTEMTOPOLOGYAPI.H
C:\PROGRAM FILES (X86)\WINDOWS KITS\8.1\INCLUDE\UM\PROCESSTOPOLOGYAPI.H
C:\PROGRAM FILES (X86)\WINDOWS KITS\8.1\INCLUDE\UM\SECURITYAPPCONTAINER.H
C:\PROGRAM FILES (X86)\WINDOWS KITS\8.1\INCLUDE\UM\REALTIMEAPISET.H
C:\PROGRAM FILES (X86)\WINDOWS KITS\8.1\INCLUDE\SHARED\WINERROR.H
C:\PROGRAM FILES (X86)\WINDOWS KITS\8.1\INCLUDE\UM\TIMEZONEAPI.H
C:\PROGRAM FILES (X86)\WINDOWS KITS\8.1\INCLUDE\UM\WINGDI.H
C:\PROGRAM FILES (X86)\WINDOWS KITS\8.1\INCLUDE\SHARED\PSHPACK1.H
C:\PROGRAM FILES (X86)\WINDOWS KITS\8.1\INCLUDE\UM\WINUSER.H
C:\PROGRAM FILES (X86)\WINDOWS KITS\8.1\INCLUDE\SHARED\TVOUT.H
C:\PROGRAM FILES (X86)\WINDOWS KITS\8.1\INCLUDE\UM\WINNLS.H
C:\PROGRAM FILES (X86)\WINDOWS KITS\8.1\INCLUDE\UM\DATETIMEAPI.H
C:\PROGRAM FILES (X86)\WINDOWS KITS\8.1\INCLUDE\UM\STRINGAPISET.H
C:\PROGRAM FILES (X86)\WINDOWS KITS\8.1\INCLUDE\UM\WINCON.H
C:\PROGRAM FILES (X86)\WINDOWS KITS\8.1\INCLUDE\UM\CONSOLEAPI.H
C:\PROGRAM FILES (X86)\WINDOWS KITS\8.1\INCLUDE\UM\WINVER.H
C:\PROGRAM FILES (X86)\WINDOWS KITS\8.1\INCLUDE\UM\VERRSRC.H
C:\PROGRAM FILES (X86)\WINDOWS KITS\8.1\INCLUDE\UM\WINREG.H
C:\PROGRAM FILES (X86)\WINDOWS KITS\8.1\INCLUDE\UM\REASON.H
C:\PROGRAM FILES (X86)\WINDOWS KITS\8.1\INCLUDE\UM\WINNETWK.H
C:\PROGRAM FILES (X86)\WINDOWS KITS\8.1\INCLUDE\SHARED\WNNC.H
C:\PROGRAM FILES (X86)\WINDOWS KITS\8.1\INCLUDE\SHARED\STRALIGN.H
C:\PROGRAM FILES (X86)\WINDOWS KITS\8.1\INCLUDE\UM\WINSVC.H
C:\PROGRAM FILES (X86)\WINDOWS KITS\8.1\INCLUDE\UM\MCX.H
C:\PROGRAM FILES (X86)\WINDOWS KITS\8.1\INCLUDE\UM\IMM.H
C:\PROGRAM FILES (X86)\WINDOWS KITS\8.1\INCLUDE\UM\IME_CMODES.H
C:\USERS\TASE\DESKTOP\OPENRUN\DEPENDENTE\FREEGLUT\FREEGLUT_EXT.H
C:\USERS\TASE\DESKTOP\OPENRUN\LAB_SHADER_LOADER.HPP
C:\USERS\TASE\DESKTOP\OPENRUN\LAB_GLUT.HPP
C:\USERS\TASE\DESKTOP\OPENRUN\LAB_GLUT_SUPPORT.HPP
C:\USERS\TASE\DESKTOP\OPENRUN\LAB_CAMERA.HPP
C:\PROGRAM FILES (X86)\MICROSOFT VISUAL STUDIO 12.0\VC\INCLUDE\CTIME
C:\PROGRAM FILES (X86)\MICROSOFT VISUAL STUDIO 12.0\VC\INCLUDE\TIME.H
C:\PROGRAM FILES (X86)\MICROSOFT VISUAL STUDIO 12.0\VC\INCLUDE\TIME.INL
C:\USERS\TASE\DESKTOP\OPENRUN\SOURCES\VARIABLES.H
C:\PROGRAM FILES (X86)\MICROSOFT VISUAL STUDIO 12.0\VC\BIN\1033\CLUI.DLL
C:\WINDOWS\GLOBALIZATION\SORTING\SORTDEFAULT.NLS
C:\PROGRAM FILES (X86)\MICROSOFT VISUAL STUDIO 12.0\VC\BIN\MSPDBSRV.EXE
C:\WINDOWS\SYSTEM32\TZRES.DLL
C:\USERS\TASE\DESKTOP\OPENRUN\SOURCES\TRACK.CPP
C:\USERS\TASE\DESKTOP\OPENRUN\SOURCES\VERTEX.H
C:\USERS\TASE\DESKTOP\OPENRUN\SOURCES\CHARACTER.CPP
C:\USERS\TASE\DESKTOP\OPENRUN\SOURCES\CUBE.H
C:\USERS\TASE\DESKTOP\OPENRUN\SOURCES\FLAG.CPP
