^E:\DROPBOX\PUB-AN3\EGC-ELEM_DE_GRAFICA_PE_CALCULATOR\TEME\TEMA04_UGLYFACE\UGLYFACE-V1.1.0\MAIN.CPP
C:\PROGRAM FILES (X86)\MICROSOFT VISUAL STUDIO 12.0\VC\BIN\1033\CLUI.DLL
C:\WINDOWS\GLOBALIZATION\SORTING\SORTDEFAULT.NLS
